2022_practice/2005/2005/cs.vcd
$date
	Wed Jan 19 00:54:43 2022
$end
$version
	ModelSim Version 10.6d
$end
$timescale
	10ps
$end

$scope module test $end
$var parameter 48 ! INPUT_DATA $end
$var parameter 112 " GOLDEN $end
$var parameter 32 # N_PAT $end
$var parameter 32 $ t_reset $end
$var reg 1 % reset $end
$var reg 1 & clk $end
$var reg 1 ' ready $end
$var reg 1 ( stop $end
$var reg 1 ) flag1 $end
$var reg 1 * flag2 $end
$var wire 1 + pclk $end
$var integer 32 , i $end
$var integer 32 - out_f $end
$var integer 32 . err $end
$var integer 32 / pattern_num $end
$var integer 32 0 a $end
$var integer 32 1 b $end
$var reg 8 2 X [7:0] $end
$var reg 10 3 data_tmp [9:0] $end
$var wire 1 4 Y [9] $end
$var wire 1 5 Y [8] $end
$var wire 1 6 Y [7] $end
$var wire 1 7 Y [6] $end
$var wire 1 8 Y [5] $end
$var wire 1 9 Y [4] $end
$var wire 1 : Y [3] $end
$var wire 1 ; Y [2] $end
$var wire 1 < Y [1] $end
$var wire 1 = Y [0] $end

$scope module top $end
$var wire 1 > clk $end
$var wire 1 ? reset $end
$var wire 1 @ X [7] $end
$var wire 1 A X [6] $end
$var wire 1 B X [5] $end
$var wire 1 C X [4] $end
$var wire 1 D X [3] $end
$var wire 1 E X [2] $end
$var wire 1 F X [1] $end
$var wire 1 G X [0] $end
$var reg 10 H Y [9:0] $end
$var wire 1 I y_tmp [12] $end
$var wire 1 J y_tmp [11] $end
$var wire 1 K y_tmp [10] $end
$var wire 1 L y_tmp [9] $end
$var wire 1 M y_tmp [8] $end
$var wire 1 N y_tmp [7] $end
$var wire 1 O y_tmp [6] $end
$var wire 1 P y_tmp [5] $end
$var wire 1 Q y_tmp [4] $end
$var wire 1 R y_tmp [3] $end
$var wire 1 S y_tmp [2] $end
$var wire 1 T y_tmp [1] $end
$var wire 1 U y_tmp [0] $end
$var wire 1 V x_reg_tmp [0] $end
$var wire 1 W x_reg_tmp [1] $end
$var wire 1 X x_reg_tmp [2] $end
$var wire 1 Y x_reg_tmp [3] $end
$var wire 1 Z x_reg_tmp [4] $end
$var wire 1 [ x_reg_tmp [5] $end
$var wire 1 \ x_reg_tmp [6] $end
$var wire 1 ] x_reg_tmp [7] $end
$var wire 1 ^ x_reg_tmp [8] $end
$var wire 1 _ x_reg_tmp [9] $end
$var wire 1 ` x_reg_tmp [10] $end
$var wire 1 a x_reg_tmp [11] $end
$var wire 1 b x_reg_tmp [12] $end
$var wire 1 c x_reg_tmp [13] $end
$var wire 1 d x_reg_tmp [14] $end
$var wire 1 e x_reg_tmp [15] $end
$var wire 1 f x_reg_tmp [16] $end
$var wire 1 g x_reg_tmp [17] $end
$var wire 1 h x_reg_tmp [18] $end
$var wire 1 i x_reg_tmp [19] $end
$var wire 1 j x_reg_tmp [20] $end
$var wire 1 k x_reg_tmp [21] $end
$var wire 1 l x_reg_tmp [22] $end
$var wire 1 m x_reg_tmp [23] $end
$var wire 1 n x_reg_tmp [24] $end
$var wire 1 o x_reg_tmp [25] $end
$var wire 1 p x_reg_tmp [26] $end
$var wire 1 q x_reg_tmp [27] $end
$var wire 1 r x_reg_tmp [28] $end
$var wire 1 s x_reg_tmp [29] $end
$var wire 1 t x_reg_tmp [30] $end
$var wire 1 u x_reg_tmp [31] $end
$var wire 1 v x_reg_tmp [32] $end
$var wire 1 w x_reg_tmp [33] $end
$var wire 1 x x_reg_tmp [34] $end
$var wire 1 y x_reg_tmp [35] $end
$var wire 1 z x_reg_tmp [36] $end
$var wire 1 { x_reg_tmp [37] $end
$var wire 1 | x_reg_tmp [38] $end
$var wire 1 } x_reg_tmp [39] $end
$var wire 1 ~ x_reg_tmp [40] $end
$var wire 1 !! x_reg_tmp [41] $end
$var wire 1 "! x_reg_tmp [42] $end
$var wire 1 #! x_reg_tmp [43] $end
$var wire 1 $! x_reg_tmp [44] $end
$var wire 1 %! x_reg_tmp [45] $end
$var wire 1 &! x_reg_tmp [46] $end
$var wire 1 '! x_reg_tmp [47] $end
$var wire 1 (! x_reg_tmp [48] $end
$var wire 1 )! x_reg_tmp [49] $end
$var wire 1 *! x_reg_tmp [50] $end
$var wire 1 +! x_reg_tmp [51] $end
$var wire 1 ,! x_reg_tmp [52] $end
$var wire 1 -! x_reg_tmp [53] $end
$var wire 1 .! x_reg_tmp [54] $end
$var wire 1 /! x_reg_tmp [55] $end
$var wire 1 0! x_reg_tmp [56] $end
$var wire 1 1! x_reg_tmp [57] $end
$var wire 1 2! x_reg_tmp [58] $end
$var wire 1 3! x_reg_tmp [59] $end
$var wire 1 4! x_reg_tmp [60] $end
$var wire 1 5! x_reg_tmp [61] $end
$var wire 1 6! x_reg_tmp [62] $end
$var wire 1 7! x_reg_tmp [63] $end
$var wire 1 8! x_reg_tmp [64] $end
$var wire 1 9! x_reg_tmp [65] $end
$var wire 1 :! x_reg_tmp [66] $end
$var wire 1 ;! x_reg_tmp [67] $end
$var wire 1 <! x_reg_tmp [68] $end
$var wire 1 =! x_reg_tmp [69] $end
$var wire 1 >! x_reg_tmp [70] $end
$var wire 1 ?! x_reg_tmp [71] $end
$var wire 1 @! x_reg_tmp [72] $end
$var wire 1 A! x_reg_tmp [73] $end
$var wire 1 B! x_reg_tmp [74] $end
$var wire 1 C! x_reg_tmp [75] $end
$var wire 1 D! x_reg_tmp [76] $end
$var wire 1 E! x_reg_tmp [77] $end
$var wire 1 F! x_reg_tmp [78] $end
$var wire 1 G! x_reg_tmp [79] $end
$var wire 1 H! x_reg_tmp [80] $end
$var wire 1 I! x_reg_tmp [81] $end
$var wire 1 J! x_reg_tmp [82] $end
$var wire 1 K! x_reg_tmp [83] $end
$var wire 1 L! x_reg_tmp [84] $end
$var wire 1 M! x_reg_tmp [85] $end
$var wire 1 N! x_reg_tmp [86] $end
$var wire 1 O! x_reg_tmp [87] $end
$var wire 1 P! x_reg_tmp [88] $end
$var wire 1 Q! x_reg_tmp [89] $end
$var wire 1 R! x_reg_tmp [90] $end
$var wire 1 S! x_reg_tmp [91] $end
$var wire 1 T! x_reg_tmp [92] $end
$var wire 1 U! x_reg_tmp [93] $end
$var wire 1 V! x_reg_tmp [94] $end
$var wire 1 W! x_reg_tmp [95] $end
$var wire 1 X! x_reg_tmp [96] $end
$var wire 1 Y! x_reg_tmp [97] $end
$var wire 1 Z! x_reg_tmp [98] $end
$var wire 1 [! x_reg_tmp [99] $end
$var wire 1 \! x_reg_tmp [100] $end
$var wire 1 ]! x_reg_tmp [101] $end
$var wire 1 ^! x_reg_tmp [102] $end
$var wire 1 _! x_reg_tmp [103] $end
$var wire 1 `! x_reg_tmp [104] $end
$var wire 1 a! x_reg_tmp [105] $end
$var wire 1 b! x_reg_tmp [106] $end
$var wire 1 c! x_reg_tmp [107] $end
$var wire 1 d! x_reg_tmp [108] $end
$var wire 1 e! x_reg_tmp [109] $end
$var wire 1 f! x_reg_tmp [110] $end
$var wire 1 g! x_reg_tmp [111] $end
$var wire 1 h! x_reg_tmp [112] $end
$var wire 1 i! x_reg_tmp [113] $end
$var wire 1 j! x_reg_tmp [114] $end
$var wire 1 k! x_reg_tmp [115] $end
$var wire 1 l! x_reg_tmp [116] $end
$var wire 1 m! x_avg [12] $end
$var wire 1 n! x_avg [11] $end
$var wire 1 o! x_avg [10] $end
$var wire 1 p! x_avg [9] $end
$var wire 1 q! x_avg [8] $end
$var wire 1 r! x_avg [7] $end
$var wire 1 s! x_avg [6] $end
$var wire 1 t! x_avg [5] $end
$var wire 1 u! x_avg [4] $end
$var wire 1 v! x_avg [3] $end
$var wire 1 w! x_avg [2] $end
$var wire 1 x! x_avg [1] $end
$var wire 1 y! x_avg [0] $end
$var reg 4 z! cnt [3:0] $end
$var integer 32 {! i $end
$var wire 1 |! a [9] $end
$var wire 1 }! a [8] $end
$var wire 1 ~! a [7] $end
$var wire 1 !" a [6] $end
$var wire 1 "" a [5] $end
$var wire 1 #" a [4] $end
$var wire 1 $" a [3] $end
$var wire 1 %" a [2] $end
$var wire 1 &" a [1] $end
$var wire 1 '" a [0] $end
$var wire 1 (" b [9] $end
$var wire 1 )" b [8] $end
$var wire 1 *" b [7] $end
$var wire 1 +" b [6] $end
$var wire 1 ," b [5] $end
$var wire 1 -" b [4] $end
$var wire 1 ." b [3] $end
$var wire 1 /" b [2] $end
$var wire 1 0" b [1] $end
$var wire 1 1" b [0] $end
$var wire 1 2" c [9] $end
$var wire 1 3" c [8] $end
$var wire 1 4" c [7] $end
$var wire 1 5" c [6] $end
$var wire 1 6" c [5] $end
$var wire 1 7" c [4] $end
$var wire 1 8" c [3] $end
$var wire 1 9" c [2] $end
$var wire 1 :" c [1] $end
$var wire 1 ;" c [0] $end
$var wire 1 <" d [9] $end
$var wire 1 =" d [8] $end
$var wire 1 >" d [7] $end
$var wire 1 ?" d [6] $end
$var wire 1 @" d [5] $end
$var wire 1 A" d [4] $end
$var wire 1 B" d [3] $end
$var wire 1 C" d [2] $end
$var wire 1 D" d [1] $end
$var wire 1 E" d [0] $end
$var wire 1 F" e [9] $end
$var wire 1 G" e [8] $end
$var wire 1 H" e [7] $end
$var wire 1 I" e [6] $end
$var wire 1 J" e [5] $end
$var wire 1 K" e [4] $end
$var wire 1 L" e [3] $end
$var wire 1 M" e [2] $end
$var wire 1 N" e [1] $end
$var wire 1 O" e [0] $end
$var wire 1 P" f [9] $end
$var wire 1 Q" f [8] $end
$var wire 1 R" f [7] $end
$var wire 1 S" f [6] $end
$var wire 1 T" f [5] $end
$var wire 1 U" f [4] $end
$var wire 1 V" f [3] $end
$var wire 1 W" f [2] $end
$var wire 1 X" f [1] $end
$var wire 1 Y" f [0] $end
$var wire 1 Z" g [9] $end
$var wire 1 [" g [8] $end
$var wire 1 \" g [7] $end
$var wire 1 ]" g [6] $end
$var wire 1 ^" g [5] $end
$var wire 1 _" g [4] $end
$var wire 1 `" g [3] $end
$var wire 1 a" g [2] $end
$var wire 1 b" g [1] $end
$var wire 1 c" g [0] $end
$var wire 1 d" x_appr [9] $end
$var wire 1 e" x_appr [8] $end
$var wire 1 f" x_appr [7] $end
$var wire 1 g" x_appr [6] $end
$var wire 1 h" x_appr [5] $end
$var wire 1 i" x_appr [4] $end
$var wire 1 j" x_appr [3] $end
$var wire 1 k" x_appr [2] $end
$var wire 1 l" x_appr [1] $end
$var wire 1 m" x_appr [0] $end
$upscope $end
$upscope $end
$enddefinitions $end
#0
$dumpvars
0%
1&
x'
0(
x)
x*
b10001111 2
bx 3
bx H
bx z!
b11111010000 #
b10100 $
b11010010110111000101110011001000110000101110100 !
b110111101110101011101000101111101100111011011110110110001100100011001010110111000101110011001000110000101110100 "
bx ,
b10 -
b0 .
b0 /
b0 0
b0 1
b1000 {!
1+
x=
x<
x;
x:
x9
x8
x7
x6
x5
x4
xU
xT
xS
xR
xQ
xP
xO
xN
xM
xL
xK
xJ
xI
xV
xW
xX
xY
0Z
0[
0\
x]
0^
0_
0`
0a
0b
xc
xd
xe
xf
xg
xh
xi
xj
xk
xl
xm
xn
xo
xp
xq
xr
xs
xt
xu
xv
xw
xx
xy
xz
x{
x|
x}
x~
x!!
x"!
x#!
x$!
x%!
x&!
x'!
x(!
x)!
x*!
x+!
x,!
x-!
x.!
x/!
x0!
x1!
x2!
x3!
x4!
x5!
x6!
x7!
x8!
x9!
x:!
x;!
x<!
x=!
x>!
x?!
x@!
xA!
xB!
xC!
xD!
xE!
xF!
xG!
xH!
xI!
xJ!
xK!
xL!
xM!
xN!
xO!
xP!
xQ!
xR!
xS!
xT!
xU!
xV!
xW!
xX!
xY!
xZ!
x[!
x\!
x]!
x^!
x_!
x`!
xa!
xb!
xc!
xd!
xe!
xf!
xg!
xh!
xi!
xj!
xk!
xl!
xy!
xx!
xw!
xv!
xu!
xt!
xs!
xr!
xq!
xp!
xo!
xn!
xm!
x'"
x&"
x%"
x$"
x#"
x""
x!"
x~!
x}!
x|!
x1"
x0"
x/"
x."
x-"
x,"
x+"
x*"
x)"
x("
x;"
x:"
x9"
x8"
x7"
x6"
x5"
x4"
x3"
x2"
xE"
xD"
xC"
xB"
xA"
x@"
x?"
x>"
x="
x<"
xO"
xN"
xM"
xL"
xK"
xJ"
xI"
xH"
xG"
xF"
xY"
xX"
xW"
xV"
xU"
xT"
xS"
xR"
xQ"
xP"
xc"
xb"
xa"
x`"
x_"
x^"
x]"
x\"
x["
xZ"
xm"
xl"
xk"
xj"
xi"
xh"
xg"
xf"
xe"
xd"
1>
0?
1G
1F
1E
1D
0C
0B
0A
1@
$end
#500
0&
0+
0>
1%
1?
b0 {!
b1 {!
b10 {!
b11 {!
b100 {!
b101 {!
b110 {!
b111 {!
b1000 {!
b1001 {!
b0 H
b0 z!
0y!
0x!
0w!
0v!
0u!
0t!
0s!
0r!
0q!
0p!
0o!
0n!
0m!
0`!
0a!
0b!
0c!
0d!
0e!
0f!
0g!
0h!
0i!
0j!
0k!
0l!
0S!
0T!
0U!
0V!
0W!
0X!
0Y!
0Z!
0[!
0\!
0]!
0^!
0_!
0F!
0G!
0H!
0I!
0J!
0K!
0L!
0M!
0N!
0O!
0P!
0Q!
0R!
09!
0:!
0;!
0<!
0=!
0>!
0?!
0@!
0A!
0B!
0C!
0D!
0E!
0,!
0-!
0.!
0/!
00!
01!
02!
03!
04!
05!
06!
07!
08!
0}
0~
0!!
0"!
0#!
0$!
0%!
0&!
0'!
0(!
0)!
0*!
0+!
0p
0q
0r
0s
0t
0u
0v
0w
0x
0y
0z
0{
0|
0c
0d
0e
0f
0g
0h
0i
0j
0k
0l
0m
0n
0o
0V
0W
0X
0Y
0]
0=
0<
0;
0:
09
08
07
06
05
04
0E"
0D"
0C"
0B"
0A"
0@"
0?"
0>"
0="
0<"
0;"
0:"
09"
08"
07"
06"
05"
04"
03"
02"
01"
00"
0/"
0."
0-"
0,"
0+"
0*"
0)"
0("
0'"
0&"
0%"
0$"
0#"
0""
0!"
0~!
0}!
0|!
0O"
0N"
0M"
0L"
0K"
0J"
0I"
0H"
0G"
0F"
0Y"
0X"
0W"
0V"
0U"
0T"
0S"
0R"
0Q"
0P"
0c"
0b"
0a"
0`"
0_"
0^"
0]"
0\"
0["
0Z"
0m"
0l"
0k"
0j"
0i"
0h"
0g"
0f"
0e"
0d"
0U
0T
0S
0R
0Q
0P
0O
0N
0M
0L
0K
0J
0I
#1000
1&
1+
1>
b0 {!
b1 {!
b10 {!
b11 {!
b100 {!
b101 {!
b110 {!
b111 {!
b1000 {!
b1001 {!
#1500
0&
0+
0>
#2000
1&
1+
1>
b0 {!
b1 {!
b10 {!
b11 {!
b100 {!
b101 {!
b110 {!
b111 {!
b1000 {!
b1001 {!
#2500
0%
0'
0&
0+
0?
0>
#3000
1&
1+
1>
b0 {!
b1 {!
b10 {!
b11 {!
b100 {!
b101 {!
b110 {!
b111 {!
b1000 {!
b1 z!
1y!
1x!
1w!
1v!
1U
1T
1S
1R
1N
#3500
b1 ,
0&
0+
0>
b1011 2
b10 ,
0E
0@
#4000
1&
1+
1>
b0 {!
b1 {!
b10 {!
b11 {!
b100 {!
b101 {!
b110 {!
b111 {!
b1000 {!
b10 z!
0x!
0w!
0v!
1u!
1V
1W
1Y
0U
0S
1Q
1O"
1N"
1L"
1c"
1b"
1`"
1m"
1l"
1j"
1U
0T
1S
1P
1O
#4500
0&
0+
0>
b1011101 2
b11 ,
0F
1E
1C
1A
#5000
1&
1+
1>
b0 {!
b1 {!
b10 {!
b11 {!
b100 {!
b101 {!
b110 {!
b111 {!
b1000 {!
b11 z!
1x!
1v!
1c
1d
1f
0V
0W
0Y
0U
1T
0S
0P
0N
1M
0O"
0N"
0L"
1E"
1D"
1B"
#5500
0&
0+
0>
b100000 2
b100 ,
0G
0E
0D
0C
1B
0A
#6000
1&
1+
1>
b0 {!
b1 {!
b10 {!
b11 {!
b100 {!
b101 {!
b110 {!
b111 {!
b1000 {!
b100 z!
1w!
1p
1q
1s
0c
0d
0f
1P
#6500
0&
0+
0>
b11110011 2
b101 ,
1G
1F
1C
1A
1@
#7000
1&
1+
1>
b0 {!
b1 {!
b10 {!
b11 {!
b100 {!
b101 {!
b110 {!
b111 {!
b1000 {!
b101 z!
0y!
0w!
1t!
1}
1~
1"!
0p
0q
0s
1U
0T
1S
0Q
0M
1L
0E"
0D"
0B"
1;"
1:"
18"
1h
1@"
1Y"
1X"
1V"
0c"
0b"
0`"
1^"
0m"
0l"
0j"
1h"
0U
1T
0S
0O
1M
#7500
0&
0+
0>
b111110 2
b110 ,
0G
1E
1D
0A
0@
#8000
1&
1+
1>
b0 {!
b1 {!
b10 {!
b11 {!
b100 {!
b101 {!
b110 {!
b111 {!
b1000 {!
b110 z!
0x!
0v!
0u!
0t!
1s!
1,!
1-!
1/!
0}
0~
0"!
1u
0h
0T
1O
1W
1X
1Y
1Z
1[
1N"
1M"
1L"
1K"
1J"
1b"
1a"
1`"
1_"
1l"
1k"
1j"
1i"
1T
1S
0R
1Q
0M
0L
1K
#8500
0&
0+
0>
b11100101 2
b111 ,
1G
0F
0D
0C
1A
1@
#9000
1&
1+
1>
b0 {!
b1 {!
b10 {!
b11 {!
b100 {!
b101 {!
b110 {!
b111 {!
b1000 {!
b111 z!
1x!
1v!
1u!
19!
1:!
1<!
0,!
0-!
0/!
1$!
0u
1d
1e
1f
1g
1h
0W
0X
0Y
0Z
0[
1U
0S
1R
0P
1M
0N"
0M"
0L"
0K"
0J"
1D"
1C"
1B"
1A"
0;"
0:"
08"
16"
11"
10"
1."
0Y"
0X"
0V"
1T"
#9500
0&
0+
0>
b11 2
b1000 ,
1F
0E
0B
0A
0@
#10000
1&
1+
1>
b0 {!
b1 {!
b10 {!
b11 {!
b100 {!
b101 {!
b110 {!
b111 {!
b1000 {!
b1000 z!
1F!
1G!
1I!
09!
0:!
0<!
11!
0$!
1q
1r
1s
1t
1u
0d
0e
0f
0g
0h
1V
1W
0U
1S
1O"
1N"
#10500
0&
0+
0>
b1100 2
0G
0F
1E
1D
#11000
1&
1+
1>
b0 {!
b1 {!
b10 {!
b11 {!
b100 {!
b101 {!
b110 {!
b111 {!
b1000 {!
1'
b1001 ,
b1001 z!
0x!
1w!
1S!
1T!
1V!
0F!
0G!
0I!
1>!
01!
1~
1!!
1"!
1#!
1$!
0q
0r
0s
0t
0u
1c
1d
0V
0W
1X
1Y
0S
0Q
1P
0O"
0N"
1M"
1L"
1E"
0C"
0B"
0A"
0@"
1:"
19"
18"
17"
01"
00"
0."
1,"
1'"
1&"
1$"
1X"
1W"
1V"
1U"
0b"
0_"
0^"
#11500
0&
0+
0>
b1110100 2
b1010 ,
0D
1C
1B
1A
b10101101 H
1=
1;
1:
18
16
#12000
1&
1+
1>
b0 {!
b1 {!
b10 {!
b11 {!
b100 {!
b101 {!
b110 {!
b111 {!
b1000 {!
b10101101 3
b1 /
1y!
0w!
1`!
1a!
1c!
0S!
0T!
0V!
1K!
0>!
1-!
1.!
1/!
10!
11!
0~
0!!
0"!
0#!
0$!
1p
1q
0c
0d
1e
1f
0X
0Y
1U
1S
0P
1O"
1N"
0M"
0E"
0D"
1C"
1B"
#12500
0&
0+
0>
b1111001 2
b1011 ,
1G
0E
1D
b10101001 H
0;
#13000
1&
1+
1>
b0 {!
b1 {!
b10 {!
b11 {!
b100 {!
b101 {!
b110 {!
b111 {!
b1000 {!
b10101001 3
b10 /
1w!
0v!
0u!
1t!
0`!
0a!
0c!
1X!
0K!
1:!
1;!
1<!
1=!
1>!
0-!
0.!
0/!
00!
01!
1}
1~
0p
0q
1r
1s
0e
0f
0T
1Q
1P
0O
1N
1;"
09"
08"
07"
06"
10"
1/"
1."
1-"
0'"
0&"
0$"
1""
1`!
1b!
1c!
1d!
1f!
1'"
1%"
1$"
1#"
0""
1!"
0O"
0N"
0L"
1J"
0a"
0`"
1^"
1O"
1M"
1L"
1K"
0J"
1I"
1c"
1a"
1`"
1_"
0^"
1]"
1m"
0l"
0h"
1g"
0U
0R
0P
1O
0M
1L
#13500
0&
0+
0>
b1 2
b1100 ,
0D
0C
0B
0A
b11011010 H
0=
1<
19
08
17
#14000
1&
1+
1>
b0 {!
b1 {!
b10 {!
b11 {!
b100 {!
b101 {!
b110 {!
b111 {!
b1000 {!
b11011010 3
b11 /
1x!
0w!
1v!
1u!
0t!
0`!
0b!
0c!
0d!
1e!
0f!
0X!
1G!
1H!
1I!
1J!
1K!
0:!
0;!
0<!
0=!
0>!
1,!
1-!
0}
0~
1!!
1"!
0r
0s
1V
0S
1R
1P
0N
0C"
0B"
0;"
0:"
19"
18"
0'"
0%"
0$"
0#"
1""
0!"
0O"
0M"
0L"
0K"
1J"
0I"
0c"
0a"
0`"
0_"
1^"
0]"
0m"
1l"
1h"
0g"
1U
0R
0Q
1M
0L
#14500
0&
0+
0>
b110000 2
b1101 ,
0G
1C
1B
b10101100 H
0<
1;
09
18
07
#15000
1&
1+
1>
b0 {!
b1 {!
b10 {!
b11 {!
b100 {!
b101 {!
b110 {!
b111 {!
b1000 {!
b10101100 3
b100 /
0y!
0x!
1w!
0e!
1T!
1U!
1V!
1W!
1X!
0G!
0H!
0I!
0J!
0K!
19!
1:!
0,!
0-!
1.!
1/!
0!!
0"!
1c
0V
1Z
1[
1Q
1K"
1E"
11"
0/"
0."
0-"
0,"
1&"
1%"
1$"
1#"
1N"
1M"
1L"
0X"
0U"
0T"
1_"
0l"
0k"
0j"
1b"
1a"
1`"
1l"
1k"
1j"
1T
1N
0M
0T
0N
1M
#15500
0&
0+
0>
b101110 2
b1110 ,
1F
1E
1D
0C
b10101110 H
1<
#16000
1&
1+
1>
b0 {!
b1 {!
b10 {!
b11 {!
b100 {!
b101 {!
b110 {!
b111 {!
b1000 {!
b10101110 3
b101 /
1x!
0v!
0u!
1a!
1b!
1c!
1d!
1e!
0T!
0U!
0V!
0W!
0X!
1F!
1G!
09!
0:!
1;!
1<!
0.!
0/!
1p
0c
1g
1h
1W
1X
1Y
0Z
0U
1S
1R
0Q
0O
1N
0M
0E"
1A"
1@"
09"
08"
01"
00"
1/"
1."
#16500
0&
0+
0>
b10100100 2
b1111 ,
0F
0D
1@
b10010101 H
1=
0<
0:
19
08
#17000
1&
1+
1>
b0 {!
b1 {!
b10 {!
b11 {!
b100 {!
b101 {!
b110 {!
b111 {!
b1000 {!
b10010101 3
b110 /
0w!
1u!
0a!
0b!
0c!
0d!
0e!
1S!
1T!
0F!
0G!
1H!
1I!
0;!
0<!
1}
0p
1t
1u
1d
1e
1f
0g
0W
0X
0Y
0[
1T
0S
0R
1Q
0P
0N
1M
1;"
1'"
0%"
0$"
0#"
0""
1O"
0M"
0L"
0K"
0J"
0b"
0a"
0`"
0l"
0k"
0j"
0T
1S
1N
0M
#17500
0&
0+
0>
b1110110 2
b10000 ,
1F
1C
1A
0@
b10010010 H
0=
1<
0;
#18000
1&
1+
1>
b0 {!
b1 {!
b10 {!
b11 {!
b100 {!
b101 {!
b110 {!
b111 {!
b1000 {!
b10010010 3
b111 /
1y!
0x!
1w!
0u!
1`!
1a!
0S!
0T!
1U!
1V!
0H!
0I!
1,!
0}
1#!
1$!
1q
1r
1s
0t
0d
0e
0f
0h
1U
0Q
1P
0N
1D"
1C"
1B"
0A"
0;"
17"
16"
0/"
0."
0'"
0&"
1%"
1$"
0O"
0N"
1M"
1L"
0W"
0V"
1U"
1T"
1b"
1a"
1`"
0_"
#18500
0&
0+
0>
b10000100 2
b10001 ,
0F
0C
0B
0A
1@
b10000100 H
0<
1;
09
#19000
1&
1+
1>
b0 {!
b1 {!
b10 {!
b11 {!
b100 {!
b101 {!
b110 {!
b111 {!
b1000 {!
b10000100 3
b1000 /
0y!
1u!
0`!
0a!
1b!
1c!
0U!
0V!
19!
0,!
10!
11!
1~
1!!
1"!
0#!
0q
0r
0s
0u
0U
1T
1N
0D"
0C"
0B"
0@"
11"
0b"
0^"
#19500
0&
0+
0>
b1010001 2
b10010 ,
1G
0E
1C
1A
0@
b10010100 H
19
#20000
1&
1+
1>
b0 {!
b1 {!
b10 {!
b11 {!
b100 {!
b101 {!
b110 {!
b111 {!
b1000 {!
b10010100 3
b1001 /
1y!
1x!
0w!
1v!
0b!
0c!
1F!
09!
1=!
1>!
1-!
1.!
1/!
00!
0~
0!!
0"!
0$!
1V
1Z
1\
1U
0S
1R
1O
1O"
0M"
0L"
1K"
1I"
1:"
19"
18"
07"
01"
1-"
1,"
0%"
0$"
1c"
0a"
0`"
1_"
1]"
1m"
0h"
1g"
0U
0T
1S
0R
1Q
0P
0O
0N
1L
#20500
0&
0+
0>
b11010110 2
b10011 ,
0G
1F
1E
1@
b11000010 H
1<
0;
09
17
#21000
1&
1+
1>
b0 {!
b1 {!
b10 {!
b11 {!
b100 {!
b101 {!
b110 {!
b111 {!
b1000 {!
b11000010 3
b1010 /
0y!
1w!
0v!
0u!
1t!
1S!
0F!
1J!
1K!
1:!
1;!
1<!
0=!
0-!
0.!
0/!
01!
1c
1g
1i
0V
0Z
0\
1T
1P
1O
0O"
0K"
0I"
1E"
1A"
1?"
0:"
09"
08"
06"
1'"
1O"
#21500
0&
0+
0>
b1110000 2
b10100 ,
0F
0E
1B
0@
b11001110 H
1;
1:
#22000
1&
1+
1>
b0 {!
b1 {!
b10 {!
b11 {!
b100 {!
b101 {!
b110 {!
b111 {!
b1000 {!
b11001110 3
b1011 /
1y!
0x!
1`!
0S!
1W!
1X!
1G!
1H!
1I!
0J!
0:!
0;!
0<!
0>!
1p
1t
1v
0c
0g
0i
1U
0T
1R
0Q
10"
1/"
1."
0-"
0'"
1#"
1""
0O"
1K"
1J"
1X"
1W"
1V"
0U"
#22500
0&
0+
0>
b110101 2
b10101 ,
1G
1E
0A
b11001101 H
1=
0<
#23000
1&
1+
1>
b0 {!
b1 {!
b10 {!
b11 {!
b100 {!
b101 {!
b110 {!
b111 {!
b1000 {!
b11001101 3
b1100 /
1x!
0w!
1v!
0`!
1d!
1e!
1T!
1U!
1V!
0W!
0G!
0H!
0I!
0K!
1}
1#!
1%!
0p
0t
0v
1V
1X
1Z
1[
0S
0R
0O
1N
1O"
1M"
0E"
0A"
0?"
1;"
17"
15"
00"
0/"
0."
0,"
1Y"
0X"
0W"
0V"
1U"
0T"
1S"
1a"
1^"
0]"
#23500
0&
0+
0>
b10000 2
b10110 ,
0G
0E
0B
b11010100 H
0=
0:
19
#24000
1&
1+
1>
b0 {!
b1 {!
b10 {!
b11 {!
b100 {!
b101 {!
b110 {!
b111 {!
b1000 {!
b11010100 3
b1101 /
0y!
0x!
1a!
1b!
1c!
0d!
0T!
0U!
0V!
0X!
1,!
10!
12!
0}
0#!
0%!
1c
1e
1g
1h
0V
0X
0[
0P
0O"
0M"
1E"
1C"
1A"
1@"
1&"
1%"
1$"
0#"
1N"
1M"
1L"
0K"
#24500
0&
0+
0>
b100011 2
b10111 ,
1G
1F
0C
1B
b11010000 H
0;
#25000
1&
1+
1>
b0 {!
b1 {!
b10 {!
b11 {!
b100 {!
b101 {!
b110 {!
b111 {!
b1000 {!
b11010000 3
b1110 /
1x!
1w!
0v!
0a!
0b!
0c!
0e!
19!
1=!
1?!
0,!
00!
02!
1p
1r
1t
1u
0c
0e
0h
1V
1W
0Z
1[
0U
1T
1S
1Q
1P
1O
0N
0;"
07"
05"
11"
1-"
1+"
0&"
0%"
0$"
0""
1O"
0M"
0L"
#25500
0&
0+
0>
b11100111 2
b11000 ,
1E
1A
1@
b11001110 H
1<
1;
1:
09
#26000
1&
1+
1>
b0 {!
b1 {!
b10 {!
b11 {!
b100 {!
b101 {!
b110 {!
b111 {!
b1000 {!
b11001110 3
b1111 /
1v!
1F!
1J!
1L!
09!
0=!
0?!
1}
1!!
1#!
1$!
0p
0r
0u
1c
1d
0g
1h
0V
0W
0[
1U
0T
0S
1R
0O
1N
0O"
0N"
0J"
1D"
0C"
0A"
1;"
19"
17"
16"
1b"
0a"
0_"
#26500
0&
0+
0>
b111011 2
b11001 ,
0E
1D
1C
0A
0@
b11010111 H
1=
0:
19
#27000
1&
1+
1>
b0 {!
b1 {!
b10 {!
b11 {!
b100 {!
b101 {!
b110 {!
b111 {!
b1000 {!
b11010111 3
b10000 /
1y!
0v!
1S!
1W!
1Y!
0F!
0J!
0L!
1,!
1.!
10!
11!
0}
0!!
0$!
1p
1q
0t
1u
0c
0d
0h
1V
1W
1Y
1Z
1[
0U
1T
1S
1O
0N
1O"
1N"
1L"
1K"
1J"
01"
0-"
0+"
1'"
1#"
1!"
0N"
0L"
0J"
1I"
1W"
1T"
0S"
1`"
1_"
1l"
1j"
1h"
0g"
0b"
0`"
0^"
1]"
0l"
0j"
0h"
1g"
0T
0S
0O
1N
1M
0L
1T
1S
1O
0N
0M
1L
#27500
0&
0+
0>
b1101101 2
b11010 ,
0F
1E
0C
1A
b11001111 H
1:
09
#28000
1&
1+
1>
b0 {!
b1 {!
b10 {!
b11 {!
b100 {!
b101 {!
b110 {!
b111 {!
b1000 {!
b11001111 3
b10001 /
0x!
1`!
1d!
1f!
0S!
0W!
0Y!
19!
1;!
1=!
1>!
0,!
0.!
01!
1}
1~
0#!
1$!
0p
0q
0u
1c
1d
1f
1g
1h
0V
0W
0Y
0Z
0[
1U
0R
0Q
1B"
1A"
1:"
09"
07"
11"
1/"
1-"
1,"
#28500
0&
0+
0>
b110100 2
b11011 ,
0G
0D
1C
0A
b11001100 H
0=
0<
