2008/ICC2008_priliminary_grad_cell_data/icc2008/LCD_CTRL.vcd
$date
	Mon Jan 24 15:12:02 2022
$end
$version
	ModelSim Version 10.6d
$end
$timescale
	10ps
$end

$scope module test $end
$var parameter 32 ! IMAGE_N_PAT $end
$var parameter 32 " CMD_N_PAT $end
$var parameter 32 # OUT_LENGTH $end
$var parameter 32 $ t_reset $end
$var reg 1 % clk $end
$var reg 1 & reset $end
$var reg 8 ' datain [7:0] $end
$var reg 4 ( cmd [3:0] $end
$var reg 1 ) cmd_valid $end
$var wire 1 * dataout [7] $end
$var wire 1 + dataout [6] $end
$var wire 1 , dataout [5] $end
$var wire 1 - dataout [4] $end
$var wire 1 . dataout [3] $end
$var wire 1 / dataout [2] $end
$var wire 1 0 dataout [1] $end
$var wire 1 1 dataout [0] $end
$var wire 1 2 output_valid $end
$var wire 1 3 busy $end
$var reg 8 4 out_temp [7:0] $end
$var reg 6 5 show [5:0] $end
$var reg 6 6 verify [5:0] $end
$var integer 32 7 i $end
$var integer 32 8 j $end
$var integer 32 9 out_f $end
$var integer 32 : err $end
$var integer 32 ; pass $end
$var integer 32 < pattern_num $end
$var reg 1 = over $end

$scope module top $end
$var wire 1 > clk $end
$var wire 1 ? reset $end
$var wire 1 @ datain [7] $end
$var wire 1 A datain [6] $end
$var wire 1 B datain [5] $end
$var wire 1 C datain [4] $end
$var wire 1 D datain [3] $end
$var wire 1 E datain [2] $end
$var wire 1 F datain [1] $end
$var wire 1 G datain [0] $end
$var wire 1 H cmd [3] $end
$var wire 1 I cmd [2] $end
$var wire 1 J cmd [1] $end
$var wire 1 K cmd [0] $end
$var wire 1 L cmd_valid $end
$var wire 1 * dataout [7] $end
$var wire 1 + dataout [6] $end
$var wire 1 , dataout [5] $end
$var wire 1 - dataout [4] $end
$var wire 1 . dataout [3] $end
$var wire 1 / dataout [2] $end
$var wire 1 0 dataout [1] $end
$var wire 1 1 dataout [0] $end
$var reg 1 M output_valid $end
$var reg 1 N busy $end
$var reg 3 O state [2:0] $end
$var reg 1 P zoom $end
$var reg 4 Q l [3:0] $end
$var reg 4 R w [3:0] $end
$var reg 108 S loadCount [107:0] $end
$var reg 2 T offsetx [1:0] $end
$var reg 2 U offsety [1:0] $end
$var reg 2 V rotate [1:0] $end
$var wire 1 W fitmap [3] $end
$var wire 1 X fitmap [2] $end
$var wire 1 Y fitmap [1] $end
$var wire 1 Z fitmap [0] $end
$var wire 1 [ fitxy [7] $end
$var wire 1 \ fitxy [6] $end
$var wire 1 ] fitxy [5] $end
$var wire 1 ^ fitxy [4] $end
$var wire 1 _ fitxy [3] $end
$var wire 1 ` fitxy [2] $end
$var wire 1 a fitxy [1] $end
$var wire 1 b fitxy [0] $end
$var wire 1 c zoomxy [7] $end
$var wire 1 d zoomxy [6] $end
$var wire 1 e zoomxy [5] $end
$var wire 1 f zoomxy [4] $end
$var wire 1 g zoomxy [3] $end
$var wire 1 h zoomxy [2] $end
$var wire 1 i zoomxy [1] $end
$var wire 1 j zoomxy [0] $end
$upscope $end
$upscope $end
$enddefinitions $end
#0
$dumpvars
0%
0&
bx '
bx (
0)
bx 4
b111111 5
b0 6
0=
xM
xN
bx O
xP
bx Q
bx R
bx S
bx T
bx U
bx V
b1101100 !
b10000010 "
b100000100000 #
b11001000 $
bx 7
bx 8
b10 9
b0 :
b0 ;
b0 <
x1
x0
x/
x.
x-
x,
x+
x*
x2
x3
xZ
xY
xX
xW
xb
xa
x`
x_
x^
x]
x\
x[
xj
xi
xh
xg
xf
xe
xd
xc
0L
xK
xJ
xI
xH
xG
xF
xE
xD
xC
xB
xA
x@
0?
0>
$end
#5000
1%
1>
b1101 4
#10000
0%
0>
1&
1?
#15000
1%
1>
b0 O
0P
0N
b0 V
03
#20000
0%
0>
#25000
1%
1>
#30000
0&
0%
0?
0>
b0 7
b0 (
1)
b0 8
0K
0J
0I
0H
1L
#35000
1%
1>
0M
b0 S
b1 O
1N
02
13
#40000
0%
0>
b0 '
bz (
0)
b1 8
zK
zJ
zI
zH
0G
0F
0E
0D
0C
0B
0A
0@
0L
#45000
1%
1>
b1 S
#50000
0%
0>
b1 '
b10 8
1G
#55000
1%
1>
b10 S
#60000
0%
0>
b10 '
b11 8
0G
1F
#65000
1%
1>
b11 S
#70000
0%
0>
b11 '
b100 8
1G
#75000
1%
1>
b100 S
#80000
0%
0>
b100 '
b101 8
0G
0F
1E
#85000
1%
1>
b101 S
#90000
0%
0>
b101 '
b110 8
1G
#95000
1%
1>
b110 S
#100000
0%
0>
b110 '
b111 8
0G
1F
#105000
1%
1>
b111 S
#110000
0%
0>
b111 '
b1000 8
1G
#115000
1%
1>
b1000 S
#120000
0%
0>
b1000 '
b1001 8
0G
0F
0E
1D
#125000
1%
1>
b1001 S
#130000
0%
0>
b1001 '
b1010 8
1G
#135000
1%
1>
b1010 S
#140000
0%
0>
b1010 '
b1011 8
0G
1F
#145000
1%
1>
b1011 S
#150000
0%
0>
b1011 '
b1100 8
1G
#155000
1%
1>
b1100 S
#160000
0%
0>
b1100 '
b1101 8
0G
0F
1E
#165000
1%
1>
b1101 S
#170000
0%
0>
b1101 '
b1110 8
1G
#175000
1%
1>
b1110 S
#180000
0%
0>
b1110 '
b1111 8
0G
1F
#185000
1%
1>
b1111 S
#190000
0%
0>
b1111 '
b10000 8
1G
#195000
1%
1>
b10000 S
#200000
0%
0>
b10000 '
b10001 8
0G
0F
0E
0D
1C
#205000
1%
1>
b10001 S
#210000
0%
0>
b10001 '
b10010 8
1G
#215000
1%
1>
b10010 S
#220000
0%
0>
b10010 '
b10011 8
0G
1F
#225000
1%
1>
b10011 S
#230000
0%
0>
b10011 '
b10100 8
1G
#235000
1%
1>
b10100 S
#240000
0%
0>
b10100 '
b10101 8
0G
0F
1E
#245000
1%
1>
b10101 S
#250000
0%
0>
b10101 '
b10110 8
1G
#255000
1%
1>
b10110 S
#260000
0%
0>
b10110 '
b10111 8
0G
1F
#265000
1%
1>
b10111 S
#270000
0%
0>
b10111 '
b11000 8
1G
#275000
1%
1>
b11000 S
#280000
0%
0>
b11000 '
b11001 8
0G
0F
0E
1D
#285000
1%
1>
b11001 S
#290000
0%
0>
b11001 '
b11010 8
1G
#295000
1%
1>
b11010 S
#300000
0%
0>
b11010 '
b11011 8
0G
1F
#305000
1%
1>
b11011 S
#310000
0%
0>
b11011 '
b11100 8
1G
#315000
1%
1>
b11100 S
#320000
0%
0>
b11100 '
b11101 8
0G
0F
1E
#325000
1%
1>
b11101 S
#330000
0%
0>
b11101 '
b11110 8
1G
#335000
1%
1>
b11110 S
#340000
0%
0>
b11110 '
b11111 8
0G
1F
#345000
1%
1>
b11111 S
#350000
0%
0>
b11111 '
b100000 8
1G
#355000
1%
1>
b100000 S
#360000
0%
0>
b100000 '
b100001 8
0G
0F
0E
0D
0C
1B
#365000
1%
1>
b100001 S
#370000
0%
0>
b100001 '
b100010 8
1G
#375000
1%
1>
b100010 S
#380000
0%
0>
b100010 '
b100011 8
0G
1F
#385000
1%
1>
b100011 S
#390000
0%
0>
b100011 '
b100100 8
1G
#395000
1%
1>
b100100 S
#400000
0%
0>
b100100 '
b100101 8
0G
0F
1E
#405000
1%
1>
b100101 S
#410000
0%
0>
b100101 '
b100110 8
1G
#415000
1%
1>
b100110 S
#420000
0%
0>
b100110 '
b100111 8
0G
1F
#425000
1%
1>
b100111 S
#430000
0%
0>
b100111 '
b101000 8
1G
#435000
1%
1>
b101000 S
#440000
0%
0>
b101000 '
b101001 8
0G
0F
0E
1D
#445000
1%
1>
b101001 S
#450000
0%
0>
b101001 '
b101010 8
1G
#455000
1%
1>
b101010 S
#460000
0%
0>
b101010 '
b101011 8
0G
1F
#465000
1%
1>
b101011 S
#470000
0%
0>
b101011 '
b101100 8
1G
#475000
1%
1>
b101100 S
#480000
0%
0>
b101100 '
b101101 8
0G
0F
1E
#485000
1%
1>
b101101 S
#490000
0%
0>
b101101 '
b101110 8
1G
#495000
1%
1>
b101110 S
#500000
0%
0>
b101110 '
b101111 8
0G
1F
#505000
1%
1>
b101111 S
#510000
0%
0>
b101111 '
b110000 8
1G
#515000
1%
1>
b110000 S
#520000
0%
0>
b110000 '
b110001 8
0G
0F
0E
0D
1C
#525000
1%
1>
b110001 S
#530000
0%
0>
b110001 '
b110010 8
1G
#535000
1%
1>
b110010 S
#540000
0%
0>
b110010 '
b110011 8
0G
1F
#545000
1%
1>
b110011 S
#550000
0%
0>
b110011 '
b110100 8
1G
#555000
1%
1>
b110100 S
#560000
0%
0>
b110100 '
b110101 8
0G
0F
1E
#565000
1%
1>
b110101 S
#570000
0%
0>
b110101 '
b110110 8
1G
#575000
1%
1>
b110110 S
#580000
0%
0>
b110110 '
b110111 8
0G
1F
#585000
1%
1>
b110111 S
#590000
0%
0>
b110111 '
b111000 8
1G
#595000
1%
1>
b111000 S
#600000
0%
0>
b111000 '
b111001 8
0G
0F
0E
1D
#605000
1%
1>
b111001 S
#610000
0%
0>
b111001 '
b111010 8
1G
#615000
1%
1>
b111010 S
#620000
0%
0>
b111010 '
b111011 8
0G
1F
#625000
1%
1>
b111011 S
#630000
0%
0>
b111011 '
b111100 8
1G
#635000
1%
1>
b111100 S
#640000
0%
0>
b111100 '
b111101 8
0G
0F
1E
#645000
1%
1>
b111101 S
#650000
0%
0>
b111101 '
b111110 8
1G
#655000
1%
1>
b111110 S
#660000
0%
0>
b111110 '
b111111 8
0G
1F
#665000
1%
1>
b111111 S
#670000
0%
0>
b111111 '
b1000000 8
1G
#675000
1%
1>
b1000000 S
#680000
0%
0>
b1000000 '
b1000001 8
0G
0F
0E
0D
0C
0B
1A
#685000
1%
1>
b1000001 S
#690000
0%
0>
b1000001 '
b1000010 8
1G
#695000
1%
1>
b1000010 S
#700000
0%
0>
b1000010 '
b1000011 8
0G
1F
#705000
1%
1>
b1000011 S
#710000
0%
0>
b1000011 '
b1000100 8
1G
#715000
1%
1>
b1000100 S
#720000
0%
0>
b1000100 '
b1000101 8
0G
0F
1E
#725000
1%
1>
b1000101 S
#730000
0%
0>
b1000101 '
b1000110 8
1G
#735000
1%
1>
b1000110 S
#740000
0%
0>
b1000110 '
b1000111 8
0G
1F
#745000
1%
1>
b1000111 S
#750000
0%
0>
b1000111 '
b1001000 8
1G
#755000
1%
1>
b1001000 S
#760000
0%
0>
b1001000 '
b1001001 8
0G
0F
0E
1D
#765000
1%
1>
b1001001 S
#770000
0%
0>
b1001001 '
b1001010 8
1G
#775000
1%
1>
b1001010 S
#780000
0%
0>
b1001010 '
b1001011 8
0G
1F
#785000
1%
1>
b1001011 S
#790000
0%
0>
b1001011 '
b1001100 8
1G
#795000
1%
1>
b1001100 S
#800000
0%
0>
b1001100 '
b1001101 8
0G
0F
1E
#805000
1%
1>
b1001101 S
#810000
0%
0>
b1001101 '
b1001110 8
1G
#815000
1%
1>
b1001110 S
#820000
0%
0>
b1001110 '
b1001111 8
0G
1F
#825000
1%
1>
b1001111 S
#830000
0%
0>
b1001111 '
b1010000 8
1G
#835000
1%
1>
b1010000 S
#840000
0%
0>
b1010000 '
b1010001 8
0G
0F
0E
0D
1C
#845000
1%
1>
b1010001 S
#850000
0%
0>
b1010001 '
b1010010 8
1G
#855000
1%
1>
b1010010 S
#860000
0%
0>
b1010010 '
b1010011 8
0G
1F
#865000
1%
1>
b1010011 S
#870000
0%
0>
b1010011 '
b1010100 8
1G
#875000
1%
1>
b1010100 S
#880000
0%
0>
b1010100 '
b1010101 8
0G
0F
1E
#885000
1%
1>
b1010101 S
#890000
0%
0>
b1010101 '
b1010110 8
1G
#895000
1%
1>
b1010110 S
#900000
0%
0>
b1010110 '
b1010111 8
0G
1F
#905000
1%
1>
b1010111 S
#910000
0%
0>
b1010111 '
b1011000 8
1G
#915000
1%
1>
b1011000 S
#920000
0%
0>
b1011000 '
b1011001 8
0G
0F
0E
1D
#925000
1%
1>
b1011001 S
#930000
0%
0>
b1011001 '
b1011010 8
1G
#935000
1%
1>
b1011010 S
#940000
0%
0>
b1011010 '
b1011011 8
0G
1F
#945000
1%
1>
b1011011 S
#950000
0%
0>
b1011011 '
b1011100 8
1G
#955000
1%
1>
b1011100 S
#960000
0%
0>
b1011100 '
b1011101 8
0G
0F
1E
#965000
1%
1>
b1011101 S
#970000
0%
0>
b1011101 '
b1011110 8
1G
#975000
1%
1>
b1011110 S
#980000
0%
0>
b1011110 '
b1011111 8
0G
1F
#985000
1%
1>
b1011111 S
#990000
0%
0>
b1011111 '
b1100000 8
1G
#995000
1%
1>
b1100000 S
#1000000
0%
0>
b1100000 '
b1100001 8
0G
0F
0E
0D
0C
1B
#1005000
1%
1>
b1100001 S
#1010000
0%
0>
b1100001 '
b1100010 8
1G
#1015000
1%
1>
b1100010 S
#1020000
0%
0>
b1100010 '
b1100011 8
0G
1F
#1025000
1%
1>
b1100011 S
#1030000
0%
0>
b1100011 '
b1100100 8
1G
#1035000
1%
1>
b1100100 S
#1040000
0%
0>
b1100100 '
b1100101 8
0G
0F
1E
#1045000
1%
1>
b1100101 S
#1050000
0%
0>
b1100101 '
b1100110 8
1G
#1055000
1%
1>
b1100110 S
#1060000
0%
0>
b1100110 '
b1100111 8
0G
1F
#1065000
1%
1>
b1100111 S
#1070000
0%
0>
b1100111 '
b1101000 8
1G
#1075000
1%
1>
b1101000 S
#1080000
0%
0>
b1101000 '
b1101001 8
0G
0F
0E
1D
#1085000
1%
1>
b1101001 S
#1090000
0%
0>
b1101001 '
b1101010 8
1G
#1095000
1%
1>
b1101010 S
#1100000
0%
0>
b1101010 '
b1101011 8
0G
1F
#1105000
1%
1>
b1101011 S
#1110000
0%
0>
b1101011 '
b1101100 8
1G
#1115000
1%
1>
b11 O
1M
b100 Q
b11 R
b0 T
b0 U
b1101100 S
12
0Z
0Y
0X
0W
0j
0i
0h
1g
0f
1e
0d
0c
1b
0a
1`
1_
0^
0]
0\
0[
11
00
1/
1.
0-
0,
0+
0*
#1120000
0%
0>
bx '
b1101101 8
b1 7
bz '
zG
zF
zE
zD
zC
zB
zA
z@
#1125000
1%
1>
b1 ;
b1 T
1Z
1j
0b
0`
0_
1^
01
0/
0.
1-
#1125100
b1 <
#1130000
0%
0>
#1135000
1%
1>
b10000 4
b10 ;
b10 T
0Z
1Y
0j
1i
1b
1a
11
10
#1135100
b10 <
#1140000
0%
0>
#1145000
1%
1>
b10011 4
b11 ;
b11 T
1Z
1j
0b
1`
01
1/
#1145100
b11 <
#1150000
0%
0>
#1155000
1%
1>
b10110 4
b100 ;
b1 U
b0 T
0Z
0Y
1X
0j
0i
1h
0g
1f
1b
0a
0^
1]
11
00
0-
1,
#1155100
b100 <
#1160000
0%
0>
#1165000
1%
1>
b100101 4
b101 ;
b1 T
1Z
1j
0b
0`
1_
01
0/
1.
#1165100
b101 <
#1170000
0%
0>
#1175000
1%
1>
b101000 4
b110 ;
b10 T
0Z
1Y
0j
1i
1b
1a
11
10
#1175100
b110 <
#1180000
0%
0>
#1185000
1%
1>
b101011 4
b111 ;
b11 T
1Z
1j
0b
1`
01
1/
#1185100
b111 <
#1190000
0%
0>
#1195000
1%
1>
b101110 4
b1000 ;
b10 U
b0 T
0Z
0Y
0X
1W
0j
0i
0h
0f
0e
1d
1b
0a
1^
11
00
1-
#1195100
b1000 <
#1200000
0%
0>
#1205000
1%
1>
b111101 4
b1001 ;
b1 T
1Z
1j
0b
0`
0_
0^
0]
1\
01
0/
0.
0-
0,
1+
#1205100
b1001 <
#1210000
0%
0>
#1215000
1%
1>
b1000000 4
b1010 ;
b10 T
0Z
1Y
0j
1i
1b
1a
11
10
#1215100
b1010 <
#1220000
0%
0>
#1225000
1%
1>
b1000011 4
b1011 ;
b11 T
1Z
1j
0b
1`
01
1/
#1225100
b1011 <
#1230000
0%
0>
#1235000
1%
1>
b1000110 4
b1100 ;
b11 U
b0 T
0Z
0Y
1X
0j
0i
1h
1g
1b
0a
1^
11
00
1-
#1235100
b1100 <
#1240000
0%
0>
#1245000
1%
1>
b1010101 4
b1101 ;
b1 T
1Z
1j
0b
0`
1_
01
0/
1.
#1245100
b1101 <
#1250000
0%
0>
#1255000
1%
1>
b1011000 4
b1110 ;
b10 T
0Z
1Y
0j
1i
1b
1a
11
10
#1255100
b1110 <
#1260000
0%
0>
#1265000
1%
1>
b1011011 4
b1111 ;
b11 T
1Z
1j
0b
1`
01
1/
#1265100
b1111 <
#1270000
0%
0>
#1275000
1%
1>
b1011110 4
b10000 ;
b0 O
0N
0M
b0 U
b0 T
03
02
0Z
0Y
0X
0W
0j
0i
0h
1e
0d
1b
0a
0^
0\
11
00
0-
0+
#1275100
b10000 <
b111110 5
b1 6
#1280000
0%
0>
b1 (
1)
1K
0J
0I
0H
1L
#1285000
1%
1>
b10110 4
b10 O
1N
b11 V
13
#1290000
0%
0>
0)
b10 7
bz (
0L
zK
zJ
zI
zH
#1295000
1%
1>
b11 T
1M
b11 O
1Z
1Y
1j
1i
12
0b
1a
0_
1^
01
10
0.
1-
#1300000
0%
0>
#1305000
1%
1>
b10001 ;
b1 U
1X
1h
0g
1f
1_
0^
1]
1.
0-
1,
#1305100
b10001 <
#1310000
0%
0>
#1315000
1%
1>
b101110 4
b10010 ;
b10 U
0X
1W
0h
0f
0e
1d
0_
0]
1\
0.
0,
1+
#1315100
b10010 <
#1320000
0%
0>
#1325000
1%
1>
b1000110 4
b10011 ;
b11 U
1X
1h
1g
1_
1^
1.
1-
#1325100
b10011 <
#1330000
0%
0>
#1335000
1%
1>
b1011110 4
b10100 ;
b10 T
b0 U
0Z
0X
0W
0j
0h
1e
0d
1b
0`
0_
0\
11
0/
0.
0+
#1335100
b10100 <
#1340000
0%
0>
#1345000
1%
1>
b10011 4
b10101 ;
b1 U
1X
1h
0g
1f
1_
0^
1]
1.
0-
1,
#1345100
b10101 <
#1350000
0%
0>
#1355000
1%
1>
b101011 4
b10110 ;
b10 U
0X
1W
0h
0f
0e
1d
0_
0]
1\
0.
0,
1+
#1355100
b10110 <
#1360000
0%
0>
#1365000
1%
1>
b1000011 4
b10111 ;
b11 U
1X
1h
1g
1_
1^
1.
1-
#1365100
b10111 <
#1370000
0%
0>
#1375000
1%
1>
b1011011 4
b11000 ;
b1 T
b0 U
1Z
0Y
0X
0W
1j
0i
0h
1e
0d
0b
0a
0_
0\
01
00
0.
0+
#1375100
b11000 <
#1380000
0%
0>
#1385000
1%
1>
b10000 4
b11001 ;
b1 U
1X
1h
0g
1f
1_
0^
1]
1.
0-
1,
#1385100
b11001 <
#1390000
0%
0>
#1395000
1%
1>
b101000 4
b11010 ;
b10 U
0X
1W
0h
0f
0e
1d
0_
0]
1\
0.
0,
1+
#1395100
b11010 <
#1400000
0%
0>
#1405000
1%
1>
b1000000 4
b11011 ;
b11 U
1X
1h
1g
1_
1^
1.
1-
#1405100
b11011 <
#1410000
0%
0>
#1415000
1%
1>
b1011000 4
b11100 ;
b0 T
b0 U
0Z
0X
0W
0j
0h
1e
0d
1b
1`
0^
0\
11
1/
0-
0+
#1415100
b11100 <
#1420000
0%
0>
#1425000
1%
1>
b1101 4
b11101 ;
b1 U
1X
1h
0g
1f
0_
1]
0.
1,
#1425100
b11101 <
#1430000
0%
0>
#1435000
1%
1>
b100101 4
b11110 ;
b10 U
0X
1W
0h
0f
0e
1d
1_
1^
1.
1-
#1435100
b11110 <
#1440000
0%
0>
#1445000
1%
1>
b111101 4
b11111 ;
b11 U
1X
1h
1g
0_
0]
1\
0.
0,
1+
#1445100
b11111 <
#1450000
0%
0>
#1455000
1%
1>
b1010101 4
b100000 ;
b0 O
0N
0M
b11 T
b0 U
03
02
1Z
1Y
0X
0W
1j
1i
0h
1e
0d
0b
1a
0\
01
10
0+
#1455100
b100000 <
#1460000
0%
0>
b10 (
1)
0K
1J
0I
0H
1L
#1465000
1%
1>
b1101 4
b10 O
1N
b0 V
13
#1470000
0%
0>
0)
b11 7
bz (
0L
zK
zJ
zI
zH
#1475000
1%
1>
b0 T
1M
b11 O
0Z
0Y
0j
0i
12
1b
0a
1_
0^
11
00
1.
0-
#1480000
0%
0>
#1485000
1%
1>
b100001 ;
b1 T
1Z
1j
0b
0`
0_
1^
01
0/
0.
1-
#1485100
b100001 <
#1490000
0%
0>
#1495000
1%
1>
b10000 4
b100010 ;
b10 T
0Z
1Y
0j
1i
1b
1a
11
10
#1495100
b100010 <
#1500000
0%
0>
#1505000
1%
1>
b10011 4
b100011 ;
b11 T
1Z
1j
0b
1`
01
1/
#1505100
b100011 <
#1510000
0%
0>
#1515000
1%
1>
b10110 4
b100100 ;
b1 U
b0 T
0Z
0Y
1X
0j
0i
1h
0g
1f
1b
0a
0^
1]
11
00
0-
1,
#1515100
b100100 <
#1520000
0%
0>
#1525000
1%
1>
b100101 4
b100101 ;
b1 T
1Z
1j
0b
0`
1_
01
0/
1.
#1525100
b100101 <
#1530000
0%
0>
#1535000
1%
1>
b101000 4
b100110 ;
b10 T
0Z
1Y
0j
1i
1b
1a
11
10
#1535100
b100110 <
#1540000
0%
0>
#1545000
1%
1>
b101011 4
b100111 ;
b11 T
1Z
1j
0b
1`
01
1/
#1545100
b100111 <
#1550000
0%
0>
#1555000
1%
1>
b101110 4
b101000 ;
b10 U
b0 T
0Z
0Y
0X
1W
0j
0i
0h
0f
0e
1d
1b
0a
1^
11
00
1-
#1555100
b101000 <
#1560000
0%
0>
#1565000
1%
1>
b111101 4
b101001 ;
b1 T
1Z
1j
0b
0`
0_
0^
0]
1\
01
0/
0.
0-
0,
1+
#1565100
b101001 <
#1570000
0%
0>
#1575000
1%
1>
b1000000 4
b101010 ;
b10 T
0Z
1Y
0j
1i
1b
1a
11
10
#1575100
b101010 <
#1580000
0%
0>
#1585000
1%
1>
b1000011 4
b101011 ;
b11 T
1Z
1j
0b
1`
01
1/
#1585100
b101011 <
#1590000
0%
0>
#1595000
1%
1>
b1000110 4
b101100 ;
b11 U
b0 T
0Z
0Y
1X
0j
0i
1h
1g
1b
0a
1^
11
00
1-
#1595100
b101100 <
#1600000
0%
0>
#1605000
1%
1>
b1010101 4
b101101 ;
b1 T
1Z
1j
0b
0`
1_
01
0/
1.
#1605100
b101101 <
#1610000
0%
0>
#1615000
1%
1>
b1011000 4
b101110 ;
b10 T
0Z
1Y
0j
1i
1b
1a
11
10
#1615100
b101110 <
#1620000
0%
0>
#1625000
1%
1>
b1011011 4
b101111 ;
b11 T
1Z
1j
0b
1`
01
1/
#1625100
b101111 <
#1630000
0%
0>
#1635000
1%
1>
b1011110 4
b110000 ;
b0 O
0N
0M
b0 U
b0 T
03
02
0Z
0Y
0X
0W
0j
0i
0h
1e
0d
1b
0a
0^
0\
11
00
0-
0+
#1635100
b110000 <
#1640000
0%
0>
b10 (
1)
0K
1J
0I
0H
1L
#1645000
1%
1>
b1010101 4
b10 O
1N
b1 V
13
#1650000
0%
0>
0)
b100 7
bz (
0L
zK
zJ
zI
zH
#1655000
1%
1>
b11 U
1M
b11 O
1X
1W
1h
0e
1d
12
0_
1^
1\
0.
1-
1+
#1660000
0%
0>
#1665000
1%
1>
b110001 ;
b10 U
0X
0h
0g
1_
1]
0\
1.
1,
0+
#1665100
b110001 <
#1670000
0%
0>
#1675000
1%
1>
b111101 4
b110010 ;
b1 U
1X
0W
1h
1f
1e
0d
0_
0^
0.
0-
#1675100
b110010 <
#1680000
0%
0>
#1685000
1%
1>
b100101 4
b110011 ;
b0 U
0X
0h
1g
0f
1_
0]
1.
0,
#1685100
b110011 <
#1690000
0%
0>
#1695000
1%
1>
b1101 4
b110100 ;
b1 T
b11 U
1Z
1X
1W
1j
1h
0e
1d
0b
0`
1^
1\
01
0/
1-
1+
#1695100
b110100 <
#1700000
0%
0>
#1705000
1%
1>
b1011000 4
b110101 ;
b10 U
0X
0h
0g
0_
0^
0.
0-
#1705100
b110101 <
#1710000
0%
0>
#1715000
1%
1>
b1000000 4
b110110 ;
b1 U
1X
0W
1h
1f
1e
0d
1_
1]
0\
1.
1,
0+
#1715100
b110110 <
#1720000
0%
0>
#1725000
1%
1>
b101000 4
b110111 ;
b0 U
0X
0h
1g
0f
0_
1^
0]
0.
1-
0,
#1725100
b110111 <
#1730000
0%
0>
#1735000
1%
1>
b10000 4
b111000 ;
b10 T
b11 U
0Z
1Y
1X
1W
0j
1i
1h
0e
1d
1b
1a
1_
1\
11
10
1.
1+
#1735100
b111000 <
#1740000
0%
0>
#1745000
1%
1>
b1011011 4
b111001 ;
b10 U
0X
0h
0g
0_
0^
0.
0-
#1745100
b111001 <
#1750000
0%
0>
#1755000
1%
1>
b1000011 4
b111010 ;
b1 U
1X
0W
1h
1f
1e
0d
1_
1]
0\
1.
1,
0+
#1755100
b111010 <
#1760000
0%
0>
#1765000
1%
1>
b101011 4
b111011 ;
b0 U
0X
0h
1g
0f
0_
1^
0]
0.
1-
0,
#1765100
b111011 <
#1770000
0%
0>
#1775000
1%
1>
b10011 4
b111100 ;
b11 T
b11 U
1Z
1X
1W
1j
1h
0e
1d
0b
1`
1_
1\
01
1/
1.
1+
#1775100
b111100 <
#1780000
0%
0>
#1785000
1%
1>
b1011110 4
b111101 ;
b10 U
0X
0h
0g
0_
0^
0.
0-
#1785100
b111101 <
#1790000
0%
0>
#1795000
1%
1>
b1000110 4
b111110 ;
b1 U
1X
0W
1h
1f
1e
0d
1_
1]
0\
1.
1,
0+
#1795100
b111110 <
#1800000
0%
0>
#1805000
1%
1>
b101110 4
b111111 ;
b0 U
0X
0h
1g
0f
0_
1^
0]
0.
1-
0,
#1805100
b111111 <
#1810000
0%
0>
#1815000
1%
1>
b10110 4
b1000000 ;
b0 O
0N
0M
b0 T
b11 U
03
02
0Z
0Y
1X
1W
0j
0i
1h
0e
1d
1b
0a
1\
11
00
1+
#1815100
b1000000 <
#1820000
0%
0>
b1 (
1)
1K
0J
0I
0H
1L
#1825000
1%
1>
b1101 4
b10 O
1N
b0 V
13
#1830000
0%
0>
0)
b101 7
bz (
0L
zK
zJ
zI
zH
#1835000
1%
1>
b0 U
1M
b11 O
0X
0W
0h
1e
0d
12
1_
0^
0\
1.
0-
0+
#1840000
0%
0>
#1845000
1%
1>
b1000001 ;
b1 T
1Z
1j
0b
0`
0_
1^
01
0/
0.
1-
#1845100
b1000001 <
#1850000
0%
0>
#1855000
1%
1>
b10000 4
b1000010 ;
b10 T
0Z
1Y
0j
1i
1b
1a
11
10
#1855100
b1000010 <
#1860000
0%
0>
#1865000
1%
1>
b10011 4
b1000011 ;
b11 T
1Z
1j
0b
1`
01
1/
#1865100
b1000011 <
#1870000
0%
0>
#1875000
1%
1>
b10110 4
b1000100 ;
b1 U
b0 T
0Z
0Y
1X
0j
0i
1h
0g
1f
1b
0a
0^
1]
11
00
0-
1,
#1875100
b1000100 <
#1880000
0%
0>
#1885000
1%
1>
b100101 4
b1000101 ;
b1 T
1Z
1j
0b
0`
1_
01
0/
1.
#1885100
b1000101 <
#1890000
0%
0>
#1895000
1%
1>
b101000 4
b1000110 ;
b10 T
0Z
1Y
0j
1i
1b
1a
11
10
#1895100
b1000110 <
#1900000
0%
0>
#1905000
1%
1>
b101011 4
b1000111 ;
b11 T
1Z
1j
0b
1`
01
1/
#1905100
b1000111 <
#1910000
0%
0>
#1915000
1%
1>
b101110 4
b1001000 ;
b10 U
b0 T
0Z
0Y
0X
1W
0j
0i
0h
0f
0e
1d
1b
0a
1^
11
00
1-
#1915100
b1001000 <
#1920000
0%
0>
#1925000
1%
1>
b111101 4
b1001001 ;
b1 T
1Z
1j
0b
0`
0_
0^
0]
1\
01
0/
0.
0-
0,
1+
#1925100
b1001001 <
#1930000
0%
0>
#1935000
1%
1>
b1000000 4
b1001010 ;
b10 T
0Z
1Y
0j
1i
1b
1a
11
10
#1935100
b1001010 <
#1940000
0%
0>
#1945000
1%
1>
b1000011 4
b1001011 ;
b11 T
1Z
1j
0b
1`
01
1/
#1945100
b1001011 <
#1950000
0%
0>
#1955000
1%
1>
b1000110 4
b1001100 ;
b11 U
b0 T
0Z
0Y
1X
0j
0i
1h
1g
1b
0a
1^
11
00
1-
#1955100
b1001100 <
#1960000
0%
0>
#1965000
1%
1>
b1010101 4
b1001101 ;
b1 T
1Z
1j
0b
0`
1_
01
0/
1.
#1965100
b1001101 <
#1970000
0%
0>
#1975000
1%
1>
b1011000 4
b1001110 ;
b10 T
0Z
1Y
0j
1i
1b
1a
11
10
#1975100
b1001110 <
#1980000
0%
0>
#1985000
1%
1>
b1011011 4
b1001111 ;
b11 T
1Z
1j
0b
1`
01
1/
#1985100
b1001111 <
#1990000
0%
0>
#1995000
1%
1>
b1011110 4
b1010000 ;
b0 O
0N
0M
b0 U
b0 T
03
02
0Z
0Y
0X
0W
0j
0i
0h
1e
0d
1b
0a
0^
0\
11
00
0-
0+
#1995100
b1010000 <
#2000000
0%
0>
b0 (
1)
b0 8
0K
0J
0I
0H
1L
#2005000
1%
1>
b1101 4
b0 S
b1 O
1N
13
#2010000
0%
0>
b0 '
bz (
0)
b1 8
zK
zJ
zI
zH
0G
0F
0E
0D
0C
0B
0A
0@
0L
#2015000
1%
1>
b1 S
#2020000
0%
0>
b1 '
b10 8
1G
#2025000
1%
1>
b10 S
#2030000
0%
0>
b10 '
b11 8
0G
1F
#2035000
1%
1>
b11 S
#2040000
0%
0>
b11 '
b100 8
1G
#2045000
1%
1>
b100 S
#2050000
0%
0>
b100 '
b101 8
0G
0F
1E
#2055000
1%
1>
b101 S
#2060000
0%
0>
b101 '
b110 8
1G
#2065000
1%
1>
b110 S
#2070000
0%
0>
b110 '
b111 8
0G
1F
#2075000
1%
1>
b111 S
#2080000
0%
0>
b111 '
b1000 8
1G
#2085000
1%
1>
b1000 S
#2090000
0%
0>
b1000 '
b1001 8
0G
0F
0E
1D
