2007/ICC2007/LCD_CTRL.vcd
$date
	Fri Jan 21 16:58:04 2022
$end
$version
	ModelSim Version 10.6d
$end
$timescale
	10ps
$end

$scope module test $end
$var parameter 32 ! IMAGE_N_PAT $end
$var parameter 32 " CMD_N_PAT $end
$var parameter 32 # OUT_LENGTH $end
$var parameter 32 $ t_reset $end
$var reg 1 % clk $end
$var reg 1 & reset $end
$var reg 8 ' datain [7:0] $end
$var reg 3 ( cmd [2:0] $end
$var reg 1 ) cmd_valid $end
$var wire 1 * dataout [7] $end
$var wire 1 + dataout [6] $end
$var wire 1 , dataout [5] $end
$var wire 1 - dataout [4] $end
$var wire 1 . dataout [3] $end
$var wire 1 / dataout [2] $end
$var wire 1 0 dataout [1] $end
$var wire 1 1 dataout [0] $end
$var wire 1 2 output_valid $end
$var wire 1 3 busy $end
$var reg 8 4 out_temp [7:0] $end
$var reg 1 5 stop $end
$var integer 32 6 i $end
$var integer 32 7 j $end
$var integer 32 8 out_f $end
$var integer 32 9 err $end
$var integer 32 : pattern_num $end
$var reg 1 ; over $end

$scope module top $end
$var parameter 1 < RST $end
$var parameter 1 = CMD_MODE $end
$var wire 1 > clk $end
$var wire 1 ? reset $end
$var wire 1 @ datain [7] $end
$var wire 1 A datain [6] $end
$var wire 1 B datain [5] $end
$var wire 1 C datain [4] $end
$var wire 1 D datain [3] $end
$var wire 1 E datain [2] $end
$var wire 1 F datain [1] $end
$var wire 1 G datain [0] $end
$var wire 1 H cmd [2] $end
$var wire 1 I cmd [1] $end
$var wire 1 J cmd [0] $end
$var wire 1 K cmd_valid $end
$var reg 8 L dataout [7:0] $end
$var reg 1 M output_valid $end
$var reg 1 N busy $end
$var reg 1 O mag $end
$var reg 1 P state $end
$var reg 1 Q out_flag $end
$var reg 1 R out_cpt $end
$var reg 3 S x_addr [2:0] $end
$var reg 3 T y_addr [2:0] $end
$var reg 3 U cmd_use [2:0] $end
$var reg 7 V in_pc [6:0] $end
$var reg 7 W out_pc [6:0] $end
$var integer 32 X i $end
$upscope $end
$upscope $end
$enddefinitions $end
#0
$dumpvars
0%
0&
bx '
bx (
0)
bx 4
05
0;
bx L
0M
xN
xO
xP
xQ
xR
bx S
bx T
bx U
bx V
b1 W
b1000000 !
b101101 "
b1011010000 #
b11001000 $
b0 <
b1 =
bx 6
bx 7
b10 8
b0 9
b0 :
bx X
x1
x0
x/
x.
x-
x,
x+
x*
02
x3
0K
xJ
xI
xH
xG
xF
xE
xD
xC
xB
xA
x@
0?
0>
$end
#5000
1%
1>
b0 4
1P
#10000
0%
0>
1&
1?
0P
0N
03
b0 X
b1 X
b10 X
b11 X
b100 X
b101 X
b110 X
b111 X
b1000 X
b1001 X
b1010 X
b1011 X
b1100 X
b1101 X
b1110 X
b1111 X
b10000 X
#15000
1%
1>
b0 X
b1 X
b10 X
b11 X
b100 X
b101 X
b110 X
b111 X
b1000 X
b1001 X
b1010 X
b1011 X
b1100 X
b1101 X
b1110 X
b1111 X
b10000 X
b10001 X
b10010 X
b10011 X
b10100 X
b10101 X
b10110 X
b10111 X
b11000 X
b11001 X
b11010 X
b11011 X
b11100 X
b11101 X
b11110 X
b11111 X
b100000 X
b100001 X
b100010 X
b100011 X
b100100 X
b100101 X
b100110 X
b100111 X
b101000 X
b101001 X
b101010 X
b101011 X
b101100 X
b101101 X
b101110 X
b101111 X
b110000 X
b110001 X
b110010 X
b110011 X
b110100 X
b110101 X
b110110 X
b110111 X
b111000 X
b111001 X
b111010 X
b111011 X
b111100 X
b111101 X
b111110 X
b111111 X
b1000000 X
b0 S
b0 T
b1 V
0O
0Q
b0 X
b1 X
b10 X
b11 X
b100 X
b101 X
b110 X
b111 X
b1000 X
b1001 X
b1010 X
b1011 X
b1100 X
b1101 X
b1110 X
b1111 X
b10000 X
#20000
0%
0>
0R
#25000
1%
1>
b0 X
b1 X
b10 X
b11 X
b100 X
b101 X
b110 X
b111 X
b1000 X
b1001 X
b1010 X
b1011 X
b1100 X
b1101 X
b1110 X
b1111 X
b10000 X
b10001 X
b10010 X
b10011 X
b10100 X
b10101 X
b10110 X
b10111 X
b11000 X
b11001 X
b11010 X
b11011 X
b11100 X
b11101 X
b11110 X
b11111 X
b100000 X
b100001 X
b100010 X
b100011 X
b100100 X
b100101 X
b100110 X
b100111 X
b101000 X
b101001 X
b101010 X
b101011 X
b101100 X
b101101 X
b101110 X
b101111 X
b110000 X
b110001 X
b110010 X
b110011 X
b110100 X
b110101 X
b110110 X
b110111 X
b111000 X
b111001 X
b111010 X
b111011 X
b111100 X
b111101 X
b111110 X
b111111 X
b1000000 X
#30000
0&
0%
0?
0>
b0 6
b1 (
1)
b0 7
1J
0I
0H
1K
1P
1N
13
#35000
1%
1>
b1 U
#40000
0%
0>
b0 '
bz (
0)
b1 7
0G
0F
0E
0D
0C
0B
0A
0@
zJ
zI
zH
0K
#45000
1%
1>
b0 X
b1 X
b10 X
b11 X
b100 X
b101 X
b110 X
b111 X
b1000 X
b1001 X
b1010 X
b1011 X
b1100 X
b1101 X
b1110 X
b1111 X
b10000 X
b10001 X
b10010 X
b10011 X
b10100 X
b10101 X
b10110 X
b10111 X
b11000 X
b11001 X
b11010 X
b11011 X
b11100 X
b11101 X
b11110 X
b11111 X
b100000 X
b100001 X
b100010 X
b100011 X
b100100 X
b100101 X
b100110 X
b100111 X
b101000 X
b101001 X
b101010 X
b101011 X
b101100 X
b101101 X
b101110 X
b101111 X
b110000 X
b110001 X
b110010 X
b110011 X
b110100 X
b110101 X
b110110 X
b110111 X
b111000 X
b111001 X
b111010 X
b111011 X
b111100 X
b111101 X
b111110 X
b111111 X
b10 V
#50000
0%
0>
b1 '
b10 7
1G
#55000
1%
1>
b0 X
b1 X
b10 X
b11 X
b100 X
b101 X
b110 X
b111 X
b1000 X
b1001 X
b1010 X
b1011 X
b1100 X
b1101 X
b1110 X
b1111 X
b10000 X
b10001 X
b10010 X
b10011 X
b10100 X
b10101 X
b10110 X
b10111 X
b11000 X
b11001 X
b11010 X
b11011 X
b11100 X
b11101 X
b11110 X
b11111 X
b100000 X
b100001 X
b100010 X
b100011 X
b100100 X
b100101 X
b100110 X
b100111 X
b101000 X
b101001 X
b101010 X
b101011 X
b101100 X
b101101 X
b101110 X
b101111 X
b110000 X
b110001 X
b110010 X
b110011 X
b110100 X
b110101 X
b110110 X
b110111 X
b111000 X
b111001 X
b111010 X
b111011 X
b111100 X
b111101 X
b111110 X
b111111 X
b11 V
#60000
0%
0>
b10 '
b11 7
0G
1F
#65000
1%
1>
b0 X
b1 X
b10 X
b11 X
b100 X
b101 X
b110 X
b111 X
b1000 X
b1001 X
b1010 X
b1011 X
b1100 X
b1101 X
b1110 X
b1111 X
b10000 X
b10001 X
b10010 X
b10011 X
b10100 X
b10101 X
b10110 X
b10111 X
b11000 X
b11001 X
b11010 X
b11011 X
b11100 X
b11101 X
b11110 X
b11111 X
b100000 X
b100001 X
b100010 X
b100011 X
b100100 X
b100101 X
b100110 X
b100111 X
b101000 X
b101001 X
b101010 X
b101011 X
b101100 X
b101101 X
b101110 X
b101111 X
b110000 X
b110001 X
b110010 X
b110011 X
b110100 X
b110101 X
b110110 X
b110111 X
b111000 X
b111001 X
b111010 X
b111011 X
b111100 X
b111101 X
b111110 X
b111111 X
b100 V
#70000
0%
0>
b11 '
b100 7
1G
#75000
1%
1>
b0 X
b1 X
b10 X
b11 X
b100 X
b101 X
b110 X
b111 X
b1000 X
b1001 X
b1010 X
b1011 X
b1100 X
b1101 X
b1110 X
b1111 X
b10000 X
b10001 X
b10010 X
b10011 X
b10100 X
b10101 X
b10110 X
b10111 X
b11000 X
b11001 X
b11010 X
b11011 X
b11100 X
b11101 X
b11110 X
b11111 X
b100000 X
b100001 X
b100010 X
b100011 X
b100100 X
b100101 X
b100110 X
b100111 X
b101000 X
b101001 X
b101010 X
b101011 X
b101100 X
b101101 X
b101110 X
b101111 X
b110000 X
b110001 X
b110010 X
b110011 X
b110100 X
b110101 X
b110110 X
b110111 X
b111000 X
b111001 X
b111010 X
b111011 X
b111100 X
b111101 X
b111110 X
b111111 X
b101 V
#80000
0%
0>
b100 '
b101 7
0G
0F
1E
#85000
1%
1>
b0 X
b1 X
b10 X
b11 X
b100 X
b101 X
b110 X
b111 X
b1000 X
b1001 X
b1010 X
b1011 X
b1100 X
b1101 X
b1110 X
b1111 X
b10000 X
b10001 X
b10010 X
b10011 X
b10100 X
b10101 X
b10110 X
b10111 X
b11000 X
b11001 X
b11010 X
b11011 X
b11100 X
b11101 X
b11110 X
b11111 X
b100000 X
b100001 X
b100010 X
b100011 X
b100100 X
b100101 X
b100110 X
b100111 X
b101000 X
b101001 X
b101010 X
b101011 X
b101100 X
b101101 X
b101110 X
b101111 X
b110000 X
b110001 X
b110010 X
b110011 X
b110100 X
b110101 X
b110110 X
b110111 X
b111000 X
b111001 X
b111010 X
b111011 X
b111100 X
b111101 X
b111110 X
b111111 X
b110 V
#90000
0%
0>
b101 '
b110 7
1G
#95000
1%
1>
b0 X
b1 X
b10 X
b11 X
b100 X
b101 X
b110 X
b111 X
b1000 X
b1001 X
b1010 X
b1011 X
b1100 X
b1101 X
b1110 X
b1111 X
b10000 X
b10001 X
b10010 X
b10011 X
b10100 X
b10101 X
b10110 X
b10111 X
b11000 X
b11001 X
b11010 X
b11011 X
b11100 X
b11101 X
b11110 X
b11111 X
b100000 X
b100001 X
b100010 X
b100011 X
b100100 X
b100101 X
b100110 X
b100111 X
b101000 X
b101001 X
b101010 X
b101011 X
b101100 X
b101101 X
b101110 X
b101111 X
b110000 X
b110001 X
b110010 X
b110011 X
b110100 X
b110101 X
b110110 X
b110111 X
b111000 X
b111001 X
b111010 X
b111011 X
b111100 X
b111101 X
b111110 X
b111111 X
b111 V
#100000
0%
0>
b110 '
b111 7
0G
1F
#105000
1%
1>
b0 X
b1 X
b10 X
b11 X
b100 X
b101 X
b110 X
b111 X
b1000 X
b1001 X
b1010 X
b1011 X
b1100 X
b1101 X
b1110 X
b1111 X
b10000 X
b10001 X
b10010 X
b10011 X
b10100 X
b10101 X
b10110 X
b10111 X
b11000 X
b11001 X
b11010 X
b11011 X
b11100 X
b11101 X
b11110 X
b11111 X
b100000 X
b100001 X
b100010 X
b100011 X
b100100 X
b100101 X
b100110 X
b100111 X
b101000 X
b101001 X
b101010 X
b101011 X
b101100 X
b101101 X
b101110 X
b101111 X
b110000 X
b110001 X
b110010 X
b110011 X
b110100 X
b110101 X
b110110 X
b110111 X
b111000 X
b111001 X
b111010 X
b111011 X
b111100 X
b111101 X
b111110 X
b111111 X
b1000 V
#110000
0%
0>
b111 '
b1000 7
1G
#115000
1%
1>
b0 X
b1 X
b10 X
b11 X
b100 X
b101 X
b110 X
b111 X
b1000 X
b1001 X
b1010 X
b1011 X
b1100 X
b1101 X
b1110 X
b1111 X
b10000 X
b10001 X
b10010 X
b10011 X
b10100 X
b10101 X
b10110 X
b10111 X
b11000 X
b11001 X
b11010 X
b11011 X
b11100 X
b11101 X
b11110 X
b11111 X
b100000 X
b100001 X
b100010 X
b100011 X
b100100 X
b100101 X
b100110 X
b100111 X
b101000 X
b101001 X
b101010 X
b101011 X
b101100 X
b101101 X
b101110 X
b101111 X
b110000 X
b110001 X
b110010 X
b110011 X
b110100 X
b110101 X
b110110 X
b110111 X
b111000 X
b111001 X
b111010 X
b111011 X
b111100 X
b111101 X
b111110 X
b111111 X
b1001 V
#120000
0%
0>
b1000 '
b1001 7
0G
0F
0E
1D
#125000
1%
1>
b0 X
b1 X
b10 X
b11 X
b100 X
b101 X
b110 X
b111 X
b1000 X
b1001 X
b1010 X
b1011 X
b1100 X
b1101 X
b1110 X
b1111 X
b10000 X
b10001 X
b10010 X
b10011 X
b10100 X
b10101 X
b10110 X
b10111 X
b11000 X
b11001 X
b11010 X
b11011 X
b11100 X
b11101 X
b11110 X
b11111 X
b100000 X
b100001 X
b100010 X
b100011 X
b100100 X
b100101 X
b100110 X
b100111 X
b101000 X
b101001 X
b101010 X
b101011 X
b101100 X
b101101 X
b101110 X
b101111 X
b110000 X
b110001 X
b110010 X
b110011 X
b110100 X
b110101 X
b110110 X
b110111 X
b111000 X
b111001 X
b111010 X
b111011 X
b111100 X
b111101 X
b111110 X
b111111 X
b1010 V
#130000
0%
0>
b1001 '
b1010 7
1G
#135000
1%
1>
b0 X
b1 X
b10 X
b11 X
b100 X
b101 X
b110 X
b111 X
b1000 X
b1001 X
b1010 X
b1011 X
b1100 X
b1101 X
b1110 X
b1111 X
b10000 X
b10001 X
b10010 X
b10011 X
b10100 X
b10101 X
b10110 X
b10111 X
b11000 X
b11001 X
b11010 X
b11011 X
b11100 X
b11101 X
b11110 X
b11111 X
b100000 X
b100001 X
b100010 X
b100011 X
b100100 X
b100101 X
b100110 X
b100111 X
b101000 X
b101001 X
b101010 X
b101011 X
b101100 X
b101101 X
b101110 X
b101111 X
b110000 X
b110001 X
b110010 X
b110011 X
b110100 X
b110101 X
b110110 X
b110111 X
b111000 X
b111001 X
b111010 X
b111011 X
b111100 X
b111101 X
b111110 X
b111111 X
b1011 V
#140000
0%
0>
b1010 '
b1011 7
0G
1F
#145000
1%
1>
b0 X
b1 X
b10 X
b11 X
b100 X
b101 X
b110 X
b111 X
b1000 X
b1001 X
b1010 X
b1011 X
b1100 X
b1101 X
b1110 X
b1111 X
b10000 X
b10001 X
b10010 X
b10011 X
b10100 X
b10101 X
b10110 X
b10111 X
b11000 X
b11001 X
b11010 X
b11011 X
b11100 X
b11101 X
b11110 X
b11111 X
b100000 X
b100001 X
b100010 X
b100011 X
b100100 X
b100101 X
b100110 X
b100111 X
b101000 X
b101001 X
b101010 X
b101011 X
b101100 X
b101101 X
b101110 X
b101111 X
b110000 X
b110001 X
b110010 X
b110011 X
b110100 X
b110101 X
b110110 X
b110111 X
b111000 X
b111001 X
b111010 X
b111011 X
b111100 X
b111101 X
b111110 X
b111111 X
b1100 V
#150000
0%
0>
b1011 '
b1100 7
1G
#155000
1%
1>
b0 X
b1 X
b10 X
b11 X
b100 X
b101 X
b110 X
b111 X
b1000 X
b1001 X
b1010 X
b1011 X
b1100 X
b1101 X
b1110 X
b1111 X
b10000 X
b10001 X
b10010 X
b10011 X
b10100 X
b10101 X
b10110 X
b10111 X
b11000 X
b11001 X
b11010 X
b11011 X
b11100 X
b11101 X
b11110 X
b11111 X
b100000 X
b100001 X
b100010 X
b100011 X
b100100 X
b100101 X
b100110 X
b100111 X
b101000 X
b101001 X
b101010 X
b101011 X
b101100 X
b101101 X
b101110 X
b101111 X
b110000 X
b110001 X
b110010 X
b110011 X
b110100 X
b110101 X
b110110 X
b110111 X
b111000 X
b111001 X
b111010 X
b111011 X
b111100 X
b111101 X
b111110 X
b111111 X
b1101 V
#160000
0%
0>
b1100 '
b1101 7
0G
0F
1E
#165000
1%
1>
b0 X
b1 X
b10 X
b11 X
b100 X
b101 X
b110 X
b111 X
b1000 X
b1001 X
b1010 X
b1011 X
b1100 X
b1101 X
b1110 X
b1111 X
b10000 X
b10001 X
b10010 X
b10011 X
b10100 X
b10101 X
b10110 X
b10111 X
b11000 X
b11001 X
b11010 X
b11011 X
b11100 X
b11101 X
b11110 X
b11111 X
b100000 X
b100001 X
b100010 X
b100011 X
b100100 X
b100101 X
b100110 X
b100111 X
b101000 X
b101001 X
b101010 X
b101011 X
b101100 X
b101101 X
b101110 X
b101111 X
b110000 X
b110001 X
b110010 X
b110011 X
b110100 X
b110101 X
b110110 X
b110111 X
b111000 X
b111001 X
b111010 X
b111011 X
b111100 X
b111101 X
b111110 X
b111111 X
b1110 V
#170000
0%
0>
b1101 '
b1110 7
1G
#175000
1%
1>
b0 X
b1 X
b10 X
b11 X
b100 X
b101 X
b110 X
b111 X
b1000 X
b1001 X
b1010 X
b1011 X
b1100 X
b1101 X
b1110 X
b1111 X
b10000 X
b10001 X
b10010 X
b10011 X
b10100 X
b10101 X
b10110 X
b10111 X
b11000 X
b11001 X
b11010 X
b11011 X
b11100 X
b11101 X
b11110 X
b11111 X
b100000 X
b100001 X
b100010 X
b100011 X
b100100 X
b100101 X
b100110 X
b100111 X
b101000 X
b101001 X
b101010 X
b101011 X
b101100 X
b101101 X
b101110 X
b101111 X
b110000 X
b110001 X
b110010 X
b110011 X
b110100 X
b110101 X
b110110 X
b110111 X
b111000 X
b111001 X
b111010 X
b111011 X
b111100 X
b111101 X
b111110 X
b111111 X
b1111 V
#180000
0%
0>
b1110 '
b1111 7
0G
1F
#185000
1%
1>
b0 X
b1 X
b10 X
b11 X
b100 X
b101 X
b110 X
b111 X
b1000 X
b1001 X
b1010 X
b1011 X
b1100 X
b1101 X
b1110 X
b1111 X
b10000 X
b10001 X
b10010 X
b10011 X
b10100 X
b10101 X
b10110 X
b10111 X
b11000 X
b11001 X
b11010 X
b11011 X
b11100 X
b11101 X
b11110 X
b11111 X
b100000 X
b100001 X
b100010 X
b100011 X
b100100 X
b100101 X
b100110 X
b100111 X
b101000 X
b101001 X
b101010 X
b101011 X
b101100 X
b101101 X
b101110 X
b101111 X
b110000 X
b110001 X
b110010 X
b110011 X
b110100 X
b110101 X
b110110 X
b110111 X
b111000 X
b111001 X
b111010 X
b111011 X
b111100 X
b111101 X
b111110 X
b111111 X
b10000 V
#190000
0%
0>
b1111 '
b10000 7
1G
#195000
1%
1>
b0 X
b1 X
b10 X
b11 X
b100 X
b101 X
b110 X
b111 X
b1000 X
b1001 X
b1010 X
b1011 X
b1100 X
b1101 X
b1110 X
b1111 X
b10000 X
b10001 X
b10010 X
b10011 X
b10100 X
b10101 X
b10110 X
b10111 X
b11000 X
b11001 X
b11010 X
b11011 X
b11100 X
b11101 X
b11110 X
b11111 X
b100000 X
b100001 X
b100010 X
b100011 X
b100100 X
b100101 X
b100110 X
b100111 X
b101000 X
b101001 X
b101010 X
b101011 X
b101100 X
b101101 X
b101110 X
b101111 X
b110000 X
b110001 X
b110010 X
b110011 X
b110100 X
b110101 X
b110110 X
b110111 X
b111000 X
b111001 X
b111010 X
b111011 X
b111100 X
b111101 X
b111110 X
b111111 X
b10001 V
#200000
0%
0>
b10000 '
b10001 7
0G
0F
0E
0D
1C
#205000
1%
1>
b0 X
b1 X
b10 X
b11 X
b100 X
b101 X
b110 X
b111 X
b1000 X
b1001 X
b1010 X
b1011 X
b1100 X
b1101 X
b1110 X
b1111 X
b10000 X
b10001 X
b10010 X
b10011 X
b10100 X
b10101 X
b10110 X
b10111 X
b11000 X
b11001 X
b11010 X
b11011 X
b11100 X
b11101 X
b11110 X
b11111 X
b100000 X
b100001 X
b100010 X
b100011 X
b100100 X
b100101 X
b100110 X
b100111 X
b101000 X
b101001 X
b101010 X
b101011 X
b101100 X
b101101 X
b101110 X
b101111 X
b110000 X
b110001 X
b110010 X
b110011 X
b110100 X
b110101 X
b110110 X
b110111 X
b111000 X
b111001 X
b111010 X
b111011 X
b111100 X
b111101 X
b111110 X
b111111 X
b10010 V
#210000
0%
0>
b10001 '
b10010 7
1G
#215000
1%
1>
b0 X
b1 X
b10 X
b11 X
b100 X
b101 X
b110 X
b111 X
b1000 X
b1001 X
b1010 X
b1011 X
b1100 X
b1101 X
b1110 X
b1111 X
b10000 X
b10001 X
b10010 X
b10011 X
b10100 X
b10101 X
b10110 X
b10111 X
b11000 X
b11001 X
b11010 X
b11011 X
b11100 X
b11101 X
b11110 X
b11111 X
b100000 X
b100001 X
b100010 X
b100011 X
b100100 X
b100101 X
b100110 X
b100111 X
b101000 X
b101001 X
b101010 X
b101011 X
b101100 X
b101101 X
b101110 X
b101111 X
b110000 X
b110001 X
b110010 X
b110011 X
b110100 X
b110101 X
b110110 X
b110111 X
b111000 X
b111001 X
b111010 X
b111011 X
b111100 X
b111101 X
b111110 X
b111111 X
b10011 V
#220000
0%
0>
b10010 '
b10011 7
0G
1F
#225000
1%
1>
b0 X
b1 X
b10 X
b11 X
b100 X
b101 X
b110 X
b111 X
b1000 X
b1001 X
b1010 X
b1011 X
b1100 X
b1101 X
b1110 X
b1111 X
b10000 X
b10001 X
b10010 X
b10011 X
b10100 X
b10101 X
b10110 X
b10111 X
b11000 X
b11001 X
b11010 X
b11011 X
b11100 X
b11101 X
b11110 X
b11111 X
b100000 X
b100001 X
b100010 X
b100011 X
b100100 X
b100101 X
b100110 X
b100111 X
b101000 X
b101001 X
b101010 X
b101011 X
b101100 X
b101101 X
b101110 X
b101111 X
b110000 X
b110001 X
b110010 X
b110011 X
b110100 X
b110101 X
b110110 X
b110111 X
b111000 X
b111001 X
b111010 X
b111011 X
b111100 X
b111101 X
b111110 X
b111111 X
b10100 V
#230000
0%
0>
b10011 '
b10100 7
1G
#235000
1%
1>
b0 X
b1 X
b10 X
b11 X
b100 X
b101 X
b110 X
b111 X
b1000 X
b1001 X
b1010 X
b1011 X
b1100 X
b1101 X
b1110 X
b1111 X
b10000 X
b10001 X
b10010 X
b10011 X
b10100 X
b10101 X
b10110 X
b10111 X
b11000 X
b11001 X
b11010 X
b11011 X
b11100 X
b11101 X
b11110 X
b11111 X
b100000 X
b100001 X
b100010 X
b100011 X
b100100 X
b100101 X
b100110 X
b100111 X
b101000 X
b101001 X
b101010 X
b101011 X
b101100 X
b101101 X
b101110 X
b101111 X
b110000 X
b110001 X
b110010 X
b110011 X
b110100 X
b110101 X
b110110 X
b110111 X
b111000 X
b111001 X
b111010 X
b111011 X
b111100 X
b111101 X
b111110 X
b111111 X
b10101 V
#240000
0%
0>
b10100 '
b10101 7
0G
0F
1E
#245000
1%
1>
b0 X
b1 X
b10 X
b11 X
b100 X
b101 X
b110 X
b111 X
b1000 X
b1001 X
b1010 X
b1011 X
b1100 X
b1101 X
b1110 X
b1111 X
b10000 X
b10001 X
b10010 X
b10011 X
b10100 X
b10101 X
b10110 X
b10111 X
b11000 X
b11001 X
b11010 X
b11011 X
b11100 X
b11101 X
b11110 X
b11111 X
b100000 X
b100001 X
b100010 X
b100011 X
b100100 X
b100101 X
b100110 X
b100111 X
b101000 X
b101001 X
b101010 X
b101011 X
b101100 X
b101101 X
b101110 X
b101111 X
b110000 X
b110001 X
b110010 X
b110011 X
b110100 X
b110101 X
b110110 X
b110111 X
b111000 X
b111001 X
b111010 X
b111011 X
b111100 X
b111101 X
b111110 X
b111111 X
b10110 V
#250000
0%
0>
b10101 '
b10110 7
1G
#255000
1%
1>
b0 X
b1 X
b10 X
b11 X
b100 X
b101 X
b110 X
b111 X
b1000 X
b1001 X
b1010 X
b1011 X
b1100 X
b1101 X
b1110 X
b1111 X
b10000 X
b10001 X
b10010 X
b10011 X
b10100 X
b10101 X
b10110 X
b10111 X
b11000 X
b11001 X
b11010 X
b11011 X
b11100 X
b11101 X
b11110 X
b11111 X
b100000 X
b100001 X
b100010 X
b100011 X
b100100 X
b100101 X
b100110 X
b100111 X
b101000 X
b101001 X
b101010 X
b101011 X
b101100 X
b101101 X
b101110 X
b101111 X
b110000 X
b110001 X
b110010 X
b110011 X
b110100 X
b110101 X
b110110 X
b110111 X
b111000 X
b111001 X
b111010 X
b111011 X
b111100 X
b111101 X
b111110 X
b111111 X
b10111 V
#260000
0%
0>
b10110 '
b10111 7
0G
1F
#265000
1%
1>
b0 X
b1 X
b10 X
b11 X
b100 X
b101 X
b110 X
b111 X
b1000 X
b1001 X
b1010 X
b1011 X
b1100 X
b1101 X
b1110 X
b1111 X
b10000 X
b10001 X
b10010 X
b10011 X
b10100 X
b10101 X
b10110 X
b10111 X
b11000 X
b11001 X
b11010 X
b11011 X
b11100 X
b11101 X
b11110 X
b11111 X
b100000 X
b100001 X
b100010 X
b100011 X
b100100 X
b100101 X
b100110 X
b100111 X
b101000 X
b101001 X
b101010 X
b101011 X
b101100 X
b101101 X
b101110 X
b101111 X
b110000 X
b110001 X
b110010 X
b110011 X
b110100 X
b110101 X
b110110 X
b110111 X
b111000 X
b111001 X
b111010 X
b111011 X
b111100 X
b111101 X
b111110 X
b111111 X
b11000 V
#270000
0%
0>
b10111 '
b11000 7
1G
#275000
1%
1>
b0 X
b1 X
b10 X
b11 X
b100 X
b101 X
b110 X
b111 X
b1000 X
b1001 X
b1010 X
b1011 X
b1100 X
b1101 X
b1110 X
b1111 X
b10000 X
b10001 X
b10010 X
b10011 X
b10100 X
b10101 X
b10110 X
b10111 X
b11000 X
b11001 X
b11010 X
b11011 X
b11100 X
b11101 X
b11110 X
b11111 X
b100000 X
b100001 X
b100010 X
b100011 X
b100100 X
b100101 X
b100110 X
b100111 X
b101000 X
b101001 X
b101010 X
b101011 X
b101100 X
b101101 X
b101110 X
b101111 X
b110000 X
b110001 X
b110010 X
b110011 X
b110100 X
b110101 X
b110110 X
b110111 X
b111000 X
b111001 X
b111010 X
b111011 X
b111100 X
b111101 X
b111110 X
b111111 X
b11001 V
#280000
0%
0>
b11000 '
b11001 7
0G
0F
0E
1D
#285000
1%
1>
b0 X
b1 X
b10 X
b11 X
b100 X
b101 X
b110 X
b111 X
b1000 X
b1001 X
b1010 X
b1011 X
b1100 X
b1101 X
b1110 X
b1111 X
b10000 X
b10001 X
b10010 X
b10011 X
b10100 X
b10101 X
b10110 X
b10111 X
b11000 X
b11001 X
b11010 X
b11011 X
b11100 X
b11101 X
b11110 X
b11111 X
b100000 X
b100001 X
b100010 X
b100011 X
b100100 X
b100101 X
b100110 X
b100111 X
b101000 X
b101001 X
b101010 X
b101011 X
b101100 X
b101101 X
b101110 X
b101111 X
b110000 X
b110001 X
b110010 X
b110011 X
b110100 X
b110101 X
b110110 X
b110111 X
b111000 X
b111001 X
b111010 X
b111011 X
b111100 X
b111101 X
b111110 X
b111111 X
b11010 V
#290000
0%
0>
b11001 '
b11010 7
1G
#295000
1%
1>
b0 X
b1 X
b10 X
b11 X
b100 X
b101 X
b110 X
b111 X
b1000 X
b1001 X
b1010 X
b1011 X
b1100 X
b1101 X
b1110 X
b1111 X
b10000 X
b10001 X
b10010 X
b10011 X
b10100 X
b10101 X
b10110 X
b10111 X
b11000 X
b11001 X
b11010 X
b11011 X
b11100 X
b11101 X
b11110 X
b11111 X
b100000 X
b100001 X
b100010 X
b100011 X
b100100 X
b100101 X
b100110 X
b100111 X
b101000 X
b101001 X
b101010 X
b101011 X
b101100 X
b101101 X
b101110 X
b101111 X
b110000 X
b110001 X
b110010 X
b110011 X
b110100 X
b110101 X
b110110 X
b110111 X
b111000 X
b111001 X
b111010 X
b111011 X
b111100 X
b111101 X
b111110 X
b111111 X
b11011 V
#300000
0%
0>
b11010 '
b11011 7
0G
1F
#305000
1%
1>
b0 X
b1 X
b10 X
b11 X
b100 X
b101 X
b110 X
b111 X
b1000 X
b1001 X
b1010 X
b1011 X
b1100 X
b1101 X
b1110 X
b1111 X
b10000 X
b10001 X
b10010 X
b10011 X
b10100 X
b10101 X
b10110 X
b10111 X
b11000 X
b11001 X
b11010 X
b11011 X
b11100 X
b11101 X
b11110 X
b11111 X
b100000 X
b100001 X
b100010 X
b100011 X
b100100 X
b100101 X
b100110 X
b100111 X
b101000 X
b101001 X
b101010 X
b101011 X
b101100 X
b101101 X
b101110 X
b101111 X
b110000 X
b110001 X
b110010 X
b110011 X
b110100 X
b110101 X
b110110 X
b110111 X
b111000 X
b111001 X
b111010 X
b111011 X
b111100 X
b111101 X
b111110 X
b111111 X
b11100 V
#310000
0%
0>
b11011 '
b11100 7
1G
#315000
1%
1>
b0 X
b1 X
b10 X
b11 X
b100 X
b101 X
b110 X
b111 X
b1000 X
b1001 X
b1010 X
b1011 X
b1100 X
b1101 X
b1110 X
b1111 X
b10000 X
b10001 X
b10010 X
b10011 X
b10100 X
b10101 X
b10110 X
b10111 X
b11000 X
b11001 X
b11010 X
b11011 X
b11100 X
b11101 X
b11110 X
b11111 X
b100000 X
b100001 X
b100010 X
b100011 X
b100100 X
b100101 X
b100110 X
b100111 X
b101000 X
b101001 X
b101010 X
b101011 X
b101100 X
b101101 X
b101110 X
b101111 X
b110000 X
b110001 X
b110010 X
b110011 X
b110100 X
b110101 X
b110110 X
b110111 X
b111000 X
b111001 X
b111010 X
b111011 X
b111100 X
b111101 X
b111110 X
b111111 X
b11101 V
#320000
0%
0>
b11100 '
b11101 7
0G
0F
1E
#325000
1%
1>
b0 X
b1 X
b10 X
b11 X
b100 X
b101 X
b110 X
b111 X
b1000 X
b1001 X
b1010 X
b1011 X
b1100 X
b1101 X
b1110 X
b1111 X
b10000 X
b10001 X
b10010 X
b10011 X
b10100 X
b10101 X
b10110 X
b10111 X
b11000 X
b11001 X
b11010 X
b11011 X
b11100 X
b11101 X
b11110 X
b11111 X
b100000 X
b100001 X
b100010 X
b100011 X
b100100 X
b100101 X
b100110 X
b100111 X
b101000 X
b101001 X
b101010 X
b101011 X
b101100 X
b101101 X
b101110 X
b101111 X
b110000 X
b110001 X
b110010 X
b110011 X
b110100 X
b110101 X
b110110 X
b110111 X
b111000 X
b111001 X
b111010 X
b111011 X
b111100 X
b111101 X
b111110 X
b111111 X
b11110 V
#330000
0%
0>
b11101 '
b11110 7
1G
#335000
1%
1>
b0 X
b1 X
b10 X
b11 X
b100 X
b101 X
b110 X
b111 X
b1000 X
b1001 X
b1010 X
b1011 X
b1100 X
b1101 X
b1110 X
b1111 X
b10000 X
b10001 X
b10010 X
b10011 X
b10100 X
b10101 X
b10110 X
b10111 X
b11000 X
b11001 X
b11010 X
b11011 X
b11100 X
b11101 X
b11110 X
b11111 X
b100000 X
b100001 X
b100010 X
b100011 X
b100100 X
b100101 X
b100110 X
b100111 X
b101000 X
b101001 X
b101010 X
b101011 X
b101100 X
b101101 X
b101110 X
b101111 X
b110000 X
b110001 X
b110010 X
b110011 X
b110100 X
b110101 X
b110110 X
b110111 X
b111000 X
b111001 X
b111010 X
b111011 X
b111100 X
b111101 X
b111110 X
b111111 X
b11111 V
